ApplicationMgr    SUCCESS
====================================================================================================================================
====================================================================================================================================
ApplicationMgr       INFO Application Manager Configured successfully
DD4hep            WARNING ++ STD conditions NOT defined by client. NTP defaults taken.
LHCb::Det::LbDD...  DEBUG Initializing the ConditionsManager
LHCb::Det::LbDD...  DEBUG Adding derivation for  /world:DerivedCondition1 (124D33D097CF90D0)
LHCb::Det::LbDD...  DEBUG /world:DerivedCondition1 -> /world:TOTO (124D33D0A3526E3B)
LHCb::Det::LbDD...  DEBUG Adding derivation for  /world:DerivedCondition2 (124D33D0A99E346D)
LHCb::Det::LbDD...  DEBUG /world:DerivedCondition2 -> /world:TOTO (124D33D0A3526E3B)
LHCb::Det::LbDD...  DEBUG /world:DerivedCondition2 -> /world:DerivedCondition1 (124D33D097CF90D0)
EventLoopMgr      WARNING Unable to locate service "EventSelector"
EventLoopMgr      WARNING No events will be processed from external input.
ApplicationMgr       INFO Application Manager Initialized successfully
ApplicationMgr       INFO Application Manager Started successfully
LHCb::Det::LbDD...   INFO Getting slice for IOV: 2A
ConditionsDepen...  ERROR Failed to resolve conditon:124D33D0A3526E3B
ConditionDepend...  ERROR +++ Exception while creating dependent Condition /world#DerivedCondition1:
UserPool             INFO +++ * Conditions for USER pool with IOV: run(0):[0-49]                    [   2 entries]
ConditionDepend...  ERROR ++ Exception while creating dependent Condition /world#DerivedCondition1.
ReserveIOVDD4hep    FATAL  Standard std::exception is caught
ReserveIOVDD4hep    ERROR ConditionDependency: ++ Exception while creating dependent Condition /world#DerivedCondition1.
EventLoopMgr        FATAL .executeEvent(): Standard std::exception thrown by ReserveIOVDD4hep
EventLoopMgr        ERROR ConditionDependency: ++ Exception while creating dependent Condition /world#DerivedCondition1.
EventLoopMgr      WARNING Execution of algorithm ReserveIOVDD4hep failed
CondAlg             ERROR Cannot retrieve /Event/IOVLockDD4hep from transient store.
CondAlg             ERROR Maximum number of errors ( 'ErrorMax':1) reached.
EventLoopMgr      WARNING Execution of algorithm CondAlg failed
CondAlgDerived      ERROR Cannot retrieve /Event/IOVLockDD4hep from transient store.
CondAlgDerived      ERROR Maximum number of errors ( 'ErrorMax':1) reached.
EventLoopMgr      WARNING Execution of algorithm CondAlgDerived failed
EventLoopMgr        ERROR Error processing event loop.
EventLoopMgr        ERROR Terminating event processing loop due to errors
EventLoopMgr        ERROR Terminating event processing loop due to errors
ApplicationMgr       INFO Application Manager Stopped successfully
EventLoopMgr         INFO Histograms converted successfully according to request.
ApplicationMgr       INFO Application Manager Finalized successfully
ApplicationMgr      ERROR Application Manager Terminated with error code 6
