ApplicationMgr    SUCCESS
====================================================================================================================================
====================================================================================================================================
ApplicationMgr       INFO Application Manager Configured successfully
DetectorPersist...   INFO Added successfully Conversion service:XmlCnvSvc
DetectorDataSvc   SUCCESS Detector description database: git:/lhcb.xml
TESFingerPrint    VERBOSE ServiceLocatorHelper::service: found service EventDataSvc
TESFingerPrint    VERBOSE ServiceLocatorHelper::service: found service TimelineSvc
TESFingerPrint      DEBUG input handles: 0
TESFingerPrint      DEBUG output handles: 0
TESFingerPrint      DEBUG Adding public ToolHandle tool ToolSvc.DataSvcFileEntriesTool (DataSvcFileEntriesTool)
TESFingerPrint      DEBUG Data Deps for TESFingerPrint
DumpTracks          DEBUG input handles: 1
DumpTracks          DEBUG output handles: 0
DumpTracks          DEBUG Changing Rec/Track/Best to /Event/Rec/Track/Best
DumpTracks          DEBUG Data Deps for DumpTracks
  + INPUT  '/Event/Rec/Track/Best'
EventPersistenc...   INFO Added successfully Conversion service:RootCnvSvc
InputCopyStream      INFO Data source: EventDataSvc output: DATAFILE='PFN:Reco14-Stripping20.dst' SVC='RootCnvSvc' OPT='REC'
FileRecordPersi...   INFO Added successfully Conversion service:FileRecordCnvSvc
FSRInputCopyStream   INFO Data source: FileRecordDataSvc output: DATAFILE='PFN:Reco14-Stripping20.dst' SVC='FileRecordCnvSvc' OPT='REC'
ApplicationMgr       INFO Application Manager Initialized successfully
ApplicationMgr       INFO Application Manager Started successfully
EventSelector     SUCCESS Reading Event record 1. Record number within stream 1: 1
PrintHeader          INFO Run 129929, Event 1863829673
StoreExplorerAlg     INFO ========= /Event[0x########@EventDataSvc]:
StoreExplorerAlg     INFO +--> /Event [Address: CLID=0x1 Type=0x2]  DataObject
StoreExplorerAlg     INFO | +--> /Rec [Address: CLID=0x1 Type=0x2]  DataObject
StoreExplorerAlg     INFO | | +--> /Header [Address: CLID=0x69 Type=0x2]  LHCb::RecHeader
StoreExplorerAlg     INFO | | +--> /Status [Address: CLID=0x######## Type=0x2]  LHCb::ProcStatus
StoreExplorerAlg     INFO | | +--> /Summary [Address: CLID=0x6a Type=0x2]  LHCb::RecSummary
StoreExplorerAlg     INFO | +--> /Trigger [Address: CLID=0x1 Type=0x2]  DataObject
StoreExplorerAlg     INFO | | +--> /RawEvent [Address: CLID=0x3ea Type=0x2]  LHCb::RawEvent
StoreExplorerAlg     INFO | +--> /Calo [Address: CLID=0x1 Type=0x2]  DataObject
StoreExplorerAlg     INFO | | +--> /RawEvent [Address: CLID=0x3ea Type=0x2]  LHCb::RawEvent
StoreExplorerAlg     INFO | +--> /Muon [Address: CLID=0x1 Type=0x2]  DataObject
StoreExplorerAlg     INFO | | +--> /RawEvent [Address: CLID=0x3ea Type=0x2]  LHCb::RawEvent
StoreExplorerAlg     INFO | +--> /Rich [Address: CLID=0x1 Type=0x2]  DataObject
StoreExplorerAlg     INFO | | +--> /RawEvent [Address: CLID=0x3ea Type=0x2]  LHCb::RawEvent
StoreExplorerAlg     INFO | +--> /Other [Address: CLID=0x1 Type=0x2]  DataObject
StoreExplorerAlg     INFO | | +--> /RawEvent [Address: CLID=0x3ea Type=0x2]  LHCb::RawEvent
StoreExplorerAlg     INFO | +--> /pRec [Address: CLID=0x1 Type=0x2]  DataObject
StoreExplorerAlg     INFO | | +--> /Track [Address: CLID=0x1 Type=0x2]  DataObject
StoreExplorerAlg     INFO | | | +--> /Best [Address: CLID=0x60e Type=0x2]  LHCb::PackedTracks
StoreExplorerAlg     INFO | | | +--> /Muon [Address: CLID=0x60e Type=0x2]  LHCb::PackedTracks
StoreExplorerAlg     INFO | | +--> /Rich [Address: CLID=0x1 Type=0x2]  DataObject
StoreExplorerAlg     INFO | | | +--> /PIDs [Address: CLID=0x619 Type=0x2]  LHCb::PackedRichPIDs
StoreExplorerAlg     INFO | | +--> /Muon [Address: CLID=0x1 Type=0x2]  DataObject
StoreExplorerAlg     INFO | | | +--> /MuonPID [Address: CLID=0x623 Type=0x2]  LHCb::PackedMuonPIDs
StoreExplorerAlg     INFO | | +--> /Calo [Address: CLID=0x1 Type=0x2]  DataObject
StoreExplorerAlg     INFO | | | +--> /Photons [Address: CLID=0x60f Type=0x2]  LHCb::PackedCaloHypos
StoreExplorerAlg     INFO | | | +--> /Electrons [Address: CLID=0x60f Type=0x2]  LHCb::PackedCaloHypos
StoreExplorerAlg     INFO | | | +--> /MergedPi0s [Address: CLID=0x60f Type=0x2]  LHCb::PackedCaloHypos
StoreExplorerAlg     INFO | | | +--> /SplitPhotons [Address: CLID=0x60f Type=0x2]  LHCb::PackedCaloHypos
StoreExplorerAlg     INFO | | +--> /ProtoP [Address: CLID=0x1 Type=0x2]  DataObject
StoreExplorerAlg     INFO | | | +--> /Charged [Address: CLID=0x610 Type=0x2]  LHCb::PackedProtoParticles
StoreExplorerAlg     INFO | | | +--> /Neutrals [Address: CLID=0x610 Type=0x2]  LHCb::PackedProtoParticles
StoreExplorerAlg     INFO | | +--> /Vertex [Address: CLID=0x1 Type=0x2]  DataObject
StoreExplorerAlg     INFO | | | +--> /Primary [Address: CLID=0x611 Type=0x2]  LHCb::PackedRecVertices
StoreExplorerAlg     INFO | |   +--> /V0 [Address: CLID=0x612 Type=0x2]  LHCb::PackedTwoProngVertices
StoreExplorerAlg     INFO | +--> /Strip [Address: CLID=0x1 Type=0x2]  DataObject
StoreExplorerAlg     INFO | | +--> /pPhys [Address: CLID=0x1 Type=0x2]  DataObject
StoreExplorerAlg     INFO | |   +--> /DecReports [Address: CLID=0x617 Type=0x2]  LHCb::PackedDecReport
StoreExplorerAlg     INFO | +--> /DAQ [Address: CLID=0x1 Type=0x2]  DataObject
StoreExplorerAlg     INFO | | +--> /ODIN [No Address]  LHCb::ODIN
StoreExplorerAlg     INFO   +--> /Dimuon [Address: CLID=0x1 Type=0x2]  DataObject
StoreExplorerAlg     INFO   | +--> /pPhys [Address: CLID=0x1 Type=0x2]  DataObject
StoreExplorerAlg     INFO   | | +--> /Particles [Address: CLID=0x62d Type=0x2]  LHCb::PackedParticles
StoreExplorerAlg     INFO   | | +--> /Vertices [Address: CLID=0x62e Type=0x2]  LHCb::PackedVertices
StoreExplorerAlg     INFO   | | +--> /RecVertices [Address: CLID=0x611 Type=0x2]  LHCb::PackedRecVertices
StoreExplorerAlg     INFO   | | +--> /Relations [Address: CLID=0x618 Type=0x2]  LHCb::PackedRelations
StoreExplorerAlg     INFO     +--> /pRec [Address: CLID=0x1 Type=0x2]  DataObject
StoreExplorerAlg     INFO       +--> /Vertex [Address: CLID=0x1 Type=0x2]  DataObject
StoreExplorerAlg     INFO         +--> /Primary [Address: CLID=0x611 Type=0x2]  LHCb::PackedRecVertices
DumpTracks           INFO There are 364 tracks in /Event/Rec/Track/Best
DumpTracks          DEBUG *** Track ***
 key        : 0
 type       : Long
 history    : Unknown
 fitstatus  : Fitted
 # ids      : 41
 chi2PerDoF : 0.844979
 nDoF       : 36
 GhostProb  : 0.00317554
 Likelihood : -3.88345
 extraInfo : [ NCandCommonHits=1  FitVeloChi2=7.99588  FitVeloNDoF=11  FitTChi2=13.6872  FitTNDoF=16  FitMatchChi2=4.35074  NUTOutliers=1 ]
 p  : 8295.01
 pt : 526.071
 3 states at z = 60.96 199.206 9450  :-
 *** State ***
 z        : 60.96
 location : ClosestToBeam
 p               : 8295.01
 pt              : 526.071
 (x,y,tx,ty,q/p) : 0.6313, 0.2697, -0.0268466, 0.0575988, 0.000120554
 covariance      : [   0.00201601  0.00020189-1.43352e-05 -1.1566e-06 -5.3409e-11
    0.00020189  0.00200704-1.12158e-06-1.41358e-05-2.36845e-11
  -1.43352e-05-1.12158e-06 1.06818e-07 6.58523e-09 3.97407e-13
   -1.1566e-06-1.41358e-05 6.58523e-09 1.04374e-07 1.57988e-13
   -5.3409e-11-2.36845e-11 3.97407e-13 1.57988e-13 1.57215e-13 ]
 *** State ***
 z        : 199.206
 location : FirstMeasurement
 p               : 8293.5
 pt              : 526.139
 (x,y,tx,ty,q/p) : -3.0831, 8.2325, -0.0268926, 0.0575992, 0.000120576
 covariance      : [    5.041e-05 1.43467e-05-8.46388e-07-2.36555e-07-2.43982e-12
   1.43467e-05     4.9e-05-1.99486e-07-9.72327e-07-1.66531e-12
  -8.46388e-07-1.99486e-07 5.37683e-08 6.66424e-09 3.37118e-13
  -2.36555e-07-9.72327e-07 6.66424e-09 5.11845e-08 1.58479e-13
  -2.43982e-12-1.66531e-12 3.37118e-13 1.58479e-13 1.57215e-13 ]
 *** State ***
 z        : 9450
 location : BegRich2
 p               : 8257.9
 pt              : 1530.08
 (x,y,tx,ty,q/p) : -885.16, 534.655, -0.18005, 0.0559815, 0.000121096
 covariance      : [   0.00913936  -0.0135796 1.51915e-05 -4.2325e-06-2.98193e-10
    -0.0135796    0.916615-1.30453e-05 0.000277294-1.25399e-08
   1.51915e-05-1.30453e-05 7.44635e-08-6.04833e-09 3.09808e-12
   -4.2325e-06 0.000277294-6.04833e-09 3.20254e-07 1.70534e-12
  -2.98193e-10-1.25399e-08 3.09808e-12 1.70534e-12 1.57216e-13 ]
DumpTracks          DEBUG *** Track ***
 key        : 1
 type       : Long
 history    : Unknown
 fitstatus  : Fitted
 # ids      : 43
 chi2PerDoF : 1.64588
 nDoF       : 38
 GhostProb  : 0.0383304
 Likelihood : -8.6894
 extraInfo : [ NCandCommonHits=1  FitVeloChi2=9.42394  FitVeloNDoF=10  FitTChi2=41.3472  FitTNDoF=18  FitMatchChi2=4.55705  NUTOutliers=0.826087 ]
 p  : 7326.53
 pt : 397.359
 3 states at z = 52.9253 231.1 9450  :-
 *** State ***
 z        : 52.9253
 location : ClosestToBeam
 p               : 7326.53
 pt              : 397.359
 (x,y,tx,ty,q/p) : 0.5895, 0.4183, -0.0165039, 0.0517475, 0.00013649
 covariance      : [   0.00583696 -0.00138663-3.26578e-05 6.07129e-06-8.88175e-12
   -0.00138663  0.00687241 6.06936e-06-3.69484e-05 8.43272e-12
  -3.26578e-05 6.06936e-06  1.9166e-07-2.64742e-08 8.90654e-14
   6.07129e-06-3.69484e-05-2.64742e-08 2.08822e-07-3.98432e-14
  -8.88175e-12 8.43272e-12 8.90654e-14-3.98432e-14 1.90052e-13 ]
 *** State ***
 z        : 231.1
 location : FirstMeasurement
 p               : 7324.29
 pt              : 397.395
 (x,y,tx,ty,q/p) : -2.3568, 9.6384, -0.0165728, 0.0517481, 0.000136532
 covariance      : [   0.00011025-6.06431e-05-2.04076e-06 1.36572e-06-4.57744e-13
  -6.06431e-05  0.00016129 1.36746e-06 -3.2815e-06  1.1073e-12
  -2.04076e-06 1.36746e-06 9.08661e-08-2.63827e-08-4.38039e-15
   1.36572e-06 -3.2815e-06-2.63827e-08 1.07774e-07-4.29351e-14
  -4.57744e-13  1.1073e-12-4.38039e-15-4.29351e-14  1.9005e-13 ]
 *** State ***
 z        : 9450
 location : BegRich2
 p               : 7282.06
 pt              : 1408.12
 (x,y,tx,ty,q/p) : -873.85, 489.756, -0.190439, 0.0507638, 0.000137324
 covariance      : [    0.0145685    0.013779 3.37033e-05  4.1885e-06 -4.1569e-10
      0.013779     1.08889-3.17393e-06 0.000381497-1.10392e-08
   3.37033e-05-3.17393e-06 1.73606e-07 2.20287e-10 2.91233e-12
    4.1885e-06 0.000381497 2.20287e-10 5.19769e-07-5.76211e-13
   -4.1569e-10-1.10392e-08 2.91233e-12-5.76211e-13 1.90051e-13 ]
DumpTracks          DEBUG *** Track ***
 key        : 2
 type       : Long
 history    : Unknown
 fitstatus  : Fitted
 # ids      : 42
 chi2PerDoF : 1.81414
 nDoF       : 36
 GhostProb  : 0.1392
 Likelihood : -17.2873
 extraInfo : [ NCandCommonHits=1  FitVeloChi2=2.35726  FitVeloNDoF=8  FitTChi2=43.1597  FitTNDoF=19  FitMatchChi2=15.1705  NUTOutliers=0.541667 ]
 p  : 5547.05
 pt : 375.956
 3 states at z = 65.9974 199.206 9450  :-
 *** State ***
 z        : 65.9974
 location : ClosestToBeam
 p               : 5547.05
 pt              : 375.956
 (x,y,tx,ty,q/p) : 0.2962, -0.3453, -0.0522795, -0.0433775, 0.000180276
 covariance      : [   0.00301401-0.000361731-2.16232e-05 2.35251e-06-1.85643e-11
  -0.000361731  0.00271441 2.45517e-06-2.00458e-05-1.46812e-11
  -2.16232e-05 2.45517e-06 1.61395e-07-1.67533e-08 1.73583e-13
   2.35251e-06-2.00458e-05-1.67533e-08 1.53421e-07 1.03016e-13
  -1.85643e-11-1.46812e-11 1.73583e-13 1.03016e-13 3.17621e-13 ]
 *** State ***
 z        : 199.206
 location : FirstMeasurement
 p               : 5546.19
 pt              : 376.178
 (x,y,tx,ty,q/p) : -6.672, -6.1235, -0.0523457, -0.0433774, 0.000180304
 covariance      : [    7.744e-05-2.14412e-05-1.53907e-06 9.85141e-08-2.47973e-12
  -2.14412e-05   5.625e-05 2.03159e-07-1.03701e-06-1.40894e-13
  -1.53907e-06 2.03159e-07 9.18757e-08-1.69106e-08 5.69418e-14
   9.85141e-08-1.03701e-06-1.69106e-08 8.39667e-08 1.08872e-13
  -2.47973e-12-1.40894e-13 5.69418e-14 1.08872e-13 3.17618e-13 ]
 *** State ***
 z        : 9450
 location : BegRich2
 p               : 5516.22
 pt              : 1543.34
 (x,y,tx,ty,q/p) : -1474.44, -389.927, -0.2886, -0.0404511, 0.000181284
 covariance      : [    0.0238085   0.0257215 4.17062e-05 1.06682e-05 -2.3711e-09
     0.0257215     2.00817 1.30062e-05  0.00081275-1.00363e-08
   4.17062e-05 1.30062e-05 1.85089e-07 1.16692e-08-2.86104e-12
   1.06682e-05  0.00081275 1.16692e-08 7.85705e-07 1.45869e-11
   -2.3711e-09-1.00363e-08-2.86104e-12 1.45869e-11 3.17616e-13 ]
DumpTracks          DEBUG *** Track ***
 key        : 3
 type       : Long
 history    : Unknown
 fitstatus  : Fitted
 # ids      : 40
 chi2PerDoF : 2.586
 nDoF       : 33
 GhostProb  : 0.186041
 Likelihood : -27.7041
 extraInfo : [ NCandCommonHits=1  FitVeloChi2=0.801851  FitVeloNDoF=9  FitTChi2=43.1973  FitTNDoF=14  FitMatchChi2=39.4776  NUTOutliers=0.52381 ]
 p  : 3691.21
 pt : 166.015
 3 states at z = 68.1425 259.117 9450  :-
 *** State ***
 z        : 68.1425
 location : ClosestToBeam
 p               : 3691.21
 pt              : 166.015
 (x,y,tx,ty,q/p) : 0.5937, -0.2822, -0.0197196, -0.0404729, 0.000270914
 covariance      : [    0.0228917 5.15373e-05 -0.00013989 6.62686e-08-1.32089e-10
   5.15373e-05   0.0219336 2.57178e-07 -0.00013592-1.52112e-11
   -0.00013989 2.57178e-07 8.97169e-07-2.42992e-09  1.2647e-12
   6.62686e-08 -0.00013592-2.42992e-09 8.80895e-07 4.81992e-14
  -1.32089e-10-1.52112e-11  1.2647e-12 4.81992e-14 2.37355e-12 ]
 *** State ***
 z        : 259.117
 location : FirstMeasurement
 p               : 3687.69
 pt              : 166.099
 (x,y,tx,ty,q/p) : -3.1858, -8.0114, -0.0198715, -0.040472, 0.000271172
 covariance      : [    8.836e-05 5.79971e-06-2.42883e-06-4.99312e-07 -2.8964e-12
   5.79971e-06   5.041e-05-3.06555e-07-1.60394e-06           0
  -2.42883e-06-3.06555e-07 2.11131e-07-2.97502e-09-4.71939e-14
  -4.99312e-07-1.60394e-06-2.97502e-09 1.93996e-07 6.78575e-14
   -2.8964e-12           0-4.71939e-14 6.78575e-14 2.37357e-12 ]
 *** State ***
 z        : 9450
 location : BegRich2
 p               : 3645.76
 pt              : 1282.01
 (x,y,tx,ty,q/p) : -1604.88, -399.257, -0.373353, -0.0413454, 0.000274291
 covariance      : [     0.121452    0.563349 0.000246286  0.00016738-2.61834e-08
      0.563349     6.44855  0.00070274  0.00213405-1.24411e-07
   0.000246286  0.00070274 9.60733e-07 2.07718e-07-6.59405e-12
    0.00016738  0.00213405 2.07718e-07 1.94896e-06-3.05415e-11
  -2.61834e-08-1.24411e-07-6.59405e-12-3.05415e-11 2.37357e-12 ]
DumpTracks          DEBUG *** Track ***
 key        : 4
 type       : Long
 history    : Unknown
 fitstatus  : Fitted
 # ids      : 40
 chi2PerDoF : 1.92106
 nDoF       : 35
 GhostProb  : 0.0800713
 Likelihood : -11.0632
 extraInfo : [ NCandCommonHits=1  FitVeloChi2=8.82867  FitVeloNDoF=9  FitTChi2=27.8442  FitTNDoF=17  FitMatchChi2=19.3602  NUTOutliers=0.863636 ]
 p  : 4185.76
 pt : 290.212
 3 states at z = 50.9368 184.299 9450  :-
 *** State ***
 z        : 50.9368
 location : ClosestToBeam
 p               : 4185.76
 pt              : 290.212
 (x,y,tx,ty,q/p) : 0.1926, 0.1925, 0.0610425, -0.0332283, 0.000238905
 covariance      : [   0.00338724 0.000290795-2.62856e-05-1.75303e-06-3.74646e-11
   0.000290795  0.00350464-1.77238e-06 -2.7175e-05-2.34513e-11
  -2.62856e-05-1.77238e-06 2.11499e-07 1.07079e-08 3.41586e-13
  -1.75303e-06 -2.7175e-05 1.07079e-08 2.18304e-07 1.50383e-13
  -3.74646e-11-2.34513e-11 3.41586e-13 1.50383e-13 5.51687e-13 ]
 *** State ***
 z        : 184.299
 location : FirstMeasurement
 p               : 4184.87
 pt              : 289.836
 (x,y,tx,ty,q/p) : 8.328, -4.2388, 0.0609573, -0.0332265, 0.000238956
 covariance      : [    4.624e-05 1.57557e-05-1.00507e-06-2.88506e-07-4.04067e-12
   1.57557e-05   4.761e-05-3.06509e-07-9.67954e-07 -2.7334e-12
  -1.00507e-06-3.06509e-07 8.00211e-08 1.09774e-08 1.47081e-13
  -2.88506e-07-9.67954e-07 1.09774e-08 8.71726e-08 1.60822e-13
  -4.04067e-12 -2.7334e-12 1.47081e-13 1.60822e-13 5.51709e-13 ]
 *** State ***
 z        : 9450
 location : BegRich2
 p               : 4147.89
 pt              : 992.183
 (x,y,tx,ty,q/p) : -676.473, -325.253, -0.244082, -0.0333807, 0.000241086
 covariance      : [    0.0140897  -0.0352713 4.59396e-05-2.32841e-05-7.46472e-10
    -0.0352713      1.4738-6.30262e-05  0.00104079 8.50617e-09
   4.59396e-05-6.30262e-05 3.22635e-07-4.95392e-08-6.45502e-12
  -2.32841e-05  0.00104079-4.95392e-08  1.6531e-06 2.36202e-11
  -7.46472e-10 8.50617e-09-6.45502e-12 2.36202e-11 5.51697e-13 ]
EventSelector     SUCCESS Reading Event record 2. Record number within stream 1: 2
PrintHeader          INFO Run 129929, Event 2181438038
StoreExplorerAlg     INFO ========= /Event[0x########@EventDataSvc]:
StoreExplorerAlg     INFO +--> /Event [Address: CLID=0x1 Type=0x2]  DataObject
StoreExplorerAlg     INFO | +--> /Rec [Address: CLID=0x1 Type=0x2]  DataObject
StoreExplorerAlg     INFO | | +--> /Header [Address: CLID=0x69 Type=0x2]  LHCb::RecHeader
StoreExplorerAlg     INFO | | +--> /Status [Address: CLID=0x######## Type=0x2]  LHCb::ProcStatus
StoreExplorerAlg     INFO | | +--> /Summary [Address: CLID=0x6a Type=0x2]  LHCb::RecSummary
StoreExplorerAlg     INFO | +--> /Trigger [Address: CLID=0x1 Type=0x2]  DataObject
StoreExplorerAlg     INFO | | +--> /RawEvent [Address: CLID=0x3ea Type=0x2]  LHCb::RawEvent
StoreExplorerAlg     INFO | +--> /Calo [Address: CLID=0x1 Type=0x2]  DataObject
StoreExplorerAlg     INFO | | +--> /RawEvent [Address: CLID=0x3ea Type=0x2]  LHCb::RawEvent
StoreExplorerAlg     INFO | +--> /Muon [Address: CLID=0x1 Type=0x2]  DataObject
StoreExplorerAlg     INFO | | +--> /RawEvent [Address: CLID=0x3ea Type=0x2]  LHCb::RawEvent
StoreExplorerAlg     INFO | +--> /Rich [Address: CLID=0x1 Type=0x2]  DataObject
StoreExplorerAlg     INFO | | +--> /RawEvent [Address: CLID=0x3ea Type=0x2]  LHCb::RawEvent
StoreExplorerAlg     INFO | +--> /Other [Address: CLID=0x1 Type=0x2]  DataObject
StoreExplorerAlg     INFO | | +--> /RawEvent [Address: CLID=0x3ea Type=0x2]  LHCb::RawEvent
StoreExplorerAlg     INFO | +--> /pRec [Address: CLID=0x1 Type=0x2]  DataObject
StoreExplorerAlg     INFO | | +--> /Track [Address: CLID=0x1 Type=0x2]  DataObject
StoreExplorerAlg     INFO | | | +--> /Best [Address: CLID=0x60e Type=0x2]  LHCb::PackedTracks
StoreExplorerAlg     INFO | | | +--> /Muon [Address: CLID=0x60e Type=0x2]  LHCb::PackedTracks
StoreExplorerAlg     INFO | | +--> /Rich [Address: CLID=0x1 Type=0x2]  DataObject
StoreExplorerAlg     INFO | | | +--> /PIDs [Address: CLID=0x619 Type=0x2]  LHCb::PackedRichPIDs
StoreExplorerAlg     INFO | | +--> /Muon [Address: CLID=0x1 Type=0x2]  DataObject
StoreExplorerAlg     INFO | | | +--> /MuonPID [Address: CLID=0x623 Type=0x2]  LHCb::PackedMuonPIDs
StoreExplorerAlg     INFO | | +--> /Calo [Address: CLID=0x1 Type=0x2]  DataObject
StoreExplorerAlg     INFO | | | +--> /Photons [Address: CLID=0x60f Type=0x2]  LHCb::PackedCaloHypos
StoreExplorerAlg     INFO | | | +--> /Electrons [Address: CLID=0x60f Type=0x2]  LHCb::PackedCaloHypos
StoreExplorerAlg     INFO | | | +--> /MergedPi0s [Address: CLID=0x60f Type=0x2]  LHCb::PackedCaloHypos
StoreExplorerAlg     INFO | | | +--> /SplitPhotons [Address: CLID=0x60f Type=0x2]  LHCb::PackedCaloHypos
StoreExplorerAlg     INFO | | +--> /ProtoP [Address: CLID=0x1 Type=0x2]  DataObject
StoreExplorerAlg     INFO | | | +--> /Charged [Address: CLID=0x610 Type=0x2]  LHCb::PackedProtoParticles
StoreExplorerAlg     INFO | | | +--> /Neutrals [Address: CLID=0x610 Type=0x2]  LHCb::PackedProtoParticles
StoreExplorerAlg     INFO | | +--> /Vertex [Address: CLID=0x1 Type=0x2]  DataObject
StoreExplorerAlg     INFO | | | +--> /Primary [Address: CLID=0x611 Type=0x2]  LHCb::PackedRecVertices
StoreExplorerAlg     INFO | |   +--> /V0 [Address: CLID=0x612 Type=0x2]  LHCb::PackedTwoProngVertices
StoreExplorerAlg     INFO | +--> /Strip [Address: CLID=0x1 Type=0x2]  DataObject
StoreExplorerAlg     INFO | | +--> /pPhys [Address: CLID=0x1 Type=0x2]  DataObject
StoreExplorerAlg     INFO | |   +--> /DecReports [Address: CLID=0x617 Type=0x2]  LHCb::PackedDecReport
StoreExplorerAlg     INFO | +--> /Dimuon [Address: CLID=0x1 Type=0x2]  DataObject
StoreExplorerAlg     INFO | | +--> /pPhys [Address: CLID=0x1 Type=0x2]  DataObject
StoreExplorerAlg     INFO | | | +--> /Particles [Address: CLID=0x62d Type=0x2]  LHCb::PackedParticles
StoreExplorerAlg     INFO | | | +--> /Vertices [Address: CLID=0x62e Type=0x2]  LHCb::PackedVertices
StoreExplorerAlg     INFO | | | +--> /RecVertices [Address: CLID=0x611 Type=0x2]  LHCb::PackedRecVertices
StoreExplorerAlg     INFO | | | +--> /Relations [Address: CLID=0x618 Type=0x2]  LHCb::PackedRelations
StoreExplorerAlg     INFO | | +--> /pRec [Address: CLID=0x1 Type=0x2]  DataObject
StoreExplorerAlg     INFO | |   +--> /Vertex [Address: CLID=0x1 Type=0x2]  DataObject
StoreExplorerAlg     INFO | |     +--> /Primary [Address: CLID=0x611 Type=0x2]  LHCb::PackedRecVertices
StoreExplorerAlg     INFO   +--> /DAQ [Address: CLID=0x1 Type=0x2]  DataObject
StoreExplorerAlg     INFO     +--> /ODIN [No Address]  LHCb::ODIN
DumpTracks           INFO There are 223 tracks in /Event/Rec/Track/Best
DumpTracks          DEBUG *** Track ***
 key        : 0
 type       : Long
 history    : Unknown
 fitstatus  : Fitted
 # ids      : 44
 chi2PerDoF : 0.836701
 nDoF       : 38
 GhostProb  : 0.0283413
 Likelihood : -4.51747
 extraInfo : [ NCandCommonHits=1  FitVeloChi2=3.43638  FitVeloNDoF=11  FitTChi2=17.1304  FitTNDoF=18  FitMatchChi2=10.9552  NUTOutliers=0.826087 ]
 p  : 12774
 pt : 748.521
 3 states at z = 18.9041 184.299 9450  :-
 *** State ***
 z        : 18.9041
 location : ClosestToBeam
 p               : 12774
 pt              : 748.521
 (x,y,tx,ty,q/p) : 0.598, 0.3995, 0.0322351, -0.0490548, 7.82841e-05
 covariance      : [   0.00120409 5.65987e-05-6.75101e-06-2.48743e-07-1.85016e-11
   5.65987e-05  0.00106276-2.70068e-07 -6.1565e-06-1.18929e-11
  -6.75101e-06-2.70068e-07 4.03006e-08 1.35723e-09 1.97174e-13
  -2.48743e-07 -6.1565e-06 1.35723e-09 3.76709e-08 1.05302e-13
  -1.85016e-11-1.18929e-11 1.97174e-13 1.05302e-13 7.87503e-14 ]
 *** State ***
 z        : 184.299
 location : FirstMeasurement
 p               : 12772.7
 pt              : 748.209
 (x,y,tx,ty,q/p) : 5.9269, -7.7139, 0.0322017, -0.0490542, 7.82917e-05
 covariance      : [    5.184e-05 8.73247e-06-5.97922e-07-1.98665e-08 1.14497e-11
   8.73247e-06   3.481e-05-4.10133e-08 -4.3193e-07 5.35346e-12
  -5.97922e-07-4.10133e-08 2.33754e-08  1.3837e-09  1.6304e-13
  -1.98665e-08 -4.3193e-07  1.3837e-09 2.07245e-08 1.05038e-13
   1.14497e-11 5.35346e-12  1.6304e-13 1.05038e-13 7.87526e-14 ]
 *** State ***
 z        : 9450
 location : BegRich2
 p               : 12740
 pt              : 1035.84
 (x,y,tx,ty,q/p) : -104.923, -458.935, -0.0656079, -0.0484803, 7.84931e-05
 covariance      : [   0.00968256 -0.00146468 1.62192e-05-3.96913e-07-1.37333e-09
   -0.00146468    0.950625-5.00493e-06 0.000230909-8.91065e-09
   1.62192e-05-5.00493e-06 6.39432e-08-8.47495e-10-2.17618e-13
  -3.96913e-07 0.000230909-8.47495e-10 1.97927e-07 8.78103e-13
  -1.37333e-09-8.91065e-09-2.17618e-13 8.78103e-13 7.87523e-14 ]
DumpTracks          DEBUG *** Track ***
 key        : 1
 type       : Long
 history    : Unknown
 fitstatus  : Fitted
 # ids      : 42
 chi2PerDoF : 1.20384
 nDoF       : 36
 GhostProb  : 0.0770114
 Likelihood : -5.34371
 extraInfo : [ NCandCommonHits=1  FitVeloChi2=4.58557  FitVeloNDoF=11  FitTChi2=22.0179  FitTNDoF=16  FitMatchChi2=14.4884  NUTOutliers=0.727273 ]
 p  : 13832.6
 pt : 648.033
 3 states at z = 14.7879 214.299 9450  :-
 *** State ***
 z        : 14.7879
 location : ClosestToBeam
 p               : 13832.6
 pt              : 648.033
 (x,y,tx,ty,q/p) : 0.3795, -0.2989, 0.0280835, 0.0375619, 7.22929e-05
 covariance      : [   0.00124609-2.96049e-06-6.01358e-06-1.79758e-08-2.06633e-11
  -2.96049e-06    0.001156-6.14412e-09-5.70829e-06 -6.9927e-12
  -6.01358e-06-6.14412e-09  3.0583e-08 7.80472e-11 1.41102e-13
  -1.79758e-08-5.70829e-06 7.80472e-11 2.94637e-08  3.3945e-14
  -2.06633e-11 -6.9927e-12 1.41102e-13  3.3945e-14 5.63155e-14 ]
 *** State ***
 z        : 214.299
 location : FirstMeasurement
 p               : 13831.4
 pt              : 647.661
 (x,y,tx,ty,q/p) : 5.9789, 7.1952, 0.0280449, 0.0375624, 7.22995e-05
 covariance      : [    4.356e-05-5.31115e-06-3.76688e-07-5.51582e-09  4.6465e-12
  -5.31115e-06   3.136e-05 6.20431e-09-2.83368e-07-2.65786e-13
  -3.76688e-07 6.20431e-09  1.5381e-08 6.16948e-11 1.10857e-13
  -5.51582e-09-2.83368e-07 6.16948e-11  1.4254e-08 3.39987e-14
    4.6465e-12-2.65786e-13 1.10857e-13 3.39987e-14 5.63153e-14 ]
 *** State ***
 z        : 9450
 location : BegRich2
 p               : 13795
 pt              : 1009.59
 (x,y,tx,ty,q/p) : -113.251, 355.251, -0.063101, 0.0374591, 7.24901e-05
 covariance      : [     0.021433   0.0306065 3.34938e-05 5.23326e-06-4.52243e-09
     0.0306065     1.09998 2.55275e-05 0.000231366 -2.6682e-08
   3.34938e-05 2.55275e-05 1.02566e-07 4.58209e-09-3.11614e-13
   5.23326e-06 0.000231366 4.58209e-09 1.97838e-07-3.38837e-12
  -4.52243e-09 -2.6682e-08-3.11614e-13-3.38837e-12 5.63199e-14 ]
DumpTracks          DEBUG *** Track ***
 key        : 2
 type       : Long
 history    : Unknown
 fitstatus  : Fitted
 # ids      : 41
 chi2PerDoF : 0.791288
 nDoF       : 34
 GhostProb  : 0.0149147
 Likelihood : -5.03661
 extraInfo : [ NCandCommonHits=1  FitVeloChi2=3.26326  FitVeloNDoF=9  FitTChi2=17.9511  FitTNDoF=16  FitMatchChi2=3.50777  NUTOutliers=1 ]
 p  : 12687
 pt : 832.58
 3 states at z = 16.5566 154.098 9450  :-
 *** State ***
 z        : 16.5566
 location : ClosestToBeam
 p               : 12687
 pt              : 832.58
 (x,y,tx,ty,q/p) : 0.0314, 0.255, 0.0647665, -0.011423, -7.88205e-05
 covariance      : [   0.00085264 -5.3964e-05-5.65208e-06 2.29989e-07-2.56767e-11
   -5.3964e-05  0.00109561 2.37134e-07-7.06929e-06 -1.4422e-11
  -5.65208e-06 2.37134e-07  3.9311e-08-8.64041e-10 2.19897e-13
   2.29989e-07-7.06929e-06-8.64041e-10 4.79566e-08 1.14499e-13
  -2.56767e-11 -1.4422e-11 2.19897e-13 1.14499e-13 5.64821e-14 ]
 *** State ***
 z        : 154.098
 location : FirstMeasurement
 p               : 12686.1
 pt              : 832.857
 (x,y,tx,ty,q/p) : 8.9413, -1.3162, 0.0647937, -0.0114235, -7.88263e-05
 covariance      : [    3.364e-05-5.88462e-06-5.24792e-07 1.12159e-07 3.12445e-12
  -5.88462e-06   5.041e-05  1.1955e-07-7.51421e-07 1.34992e-12
  -5.24792e-07  1.1955e-07  2.5847e-08 -8.5468e-10 1.99959e-13
   1.12159e-07-7.51421e-07 -8.5468e-10 3.45514e-08 1.14859e-13
   3.12445e-12 1.34992e-12 1.99959e-13 1.14859e-13 5.64829e-14 ]
 *** State ***
 z        : 9450
 location : BegRich2
 p               : 12655
 pt              : 2062.61
 (x,y,tx,ty,q/p) : 1027.62, -106.925, 0.16482, -0.011157, -7.90204e-05
 covariance      : [   0.00793881 -0.00583854 1.02092e-05-1.21079e-06-2.50923e-09
   -0.00583854    0.626314-6.68086e-06 0.000124423-3.81174e-09
   1.02092e-05-6.68086e-06 3.46258e-08-1.42094e-09-8.99193e-13
  -1.21079e-06 0.000124423-1.42094e-09 9.48086e-08 3.63441e-13
  -2.50923e-09-3.81174e-09-8.99193e-13 3.63441e-13 5.64794e-14 ]
DumpTracks          DEBUG *** Track ***
 key        : 3
 type       : Long
 history    : Unknown
 fitstatus  : Fitted
 # ids      : 33
 chi2PerDoF : 2.32531
 nDoF       : 26
 GhostProb  : 0.0878381
 Likelihood : -12.9478
 extraInfo : [ NCandCommonHits=1  FitVeloChi2=28.7895  FitVeloNDoF=9  FitTChi2=22.7  FitTNDoF=8  FitMatchChi2=5.94871 ]
 p  : 16062.9
 pt : 674.268
 3 states at z = 20.0367 229.258 9450  :-
 *** State ***
 z        : 20.0367
 location : ClosestToBeam
 p               : 16062.9
 pt              : 674.268
 (x,y,tx,ty,q/p) : 0.258, -0.7418, -0.0397823, -0.0135106, -6.22554e-05
 covariance      : [   0.00185761-6.94127e-05-7.68255e-06 1.38517e-07-1.67085e-11
  -6.94127e-05  0.00185761 1.62977e-07 -7.6221e-06-6.51348e-12
  -7.68255e-06 1.62977e-07  3.3478e-08-2.64562e-10 1.16616e-13
   1.38517e-07 -7.6221e-06-2.64562e-10 3.32187e-08 2.99391e-14
  -1.67085e-11-6.51348e-12 1.16616e-13 2.99391e-14  3.8856e-14 ]
 *** State ***
 z        : 229.258
 location : FirstMeasurement
 p               : 16061.6
 pt              : 673.678
 (x,y,tx,ty,q/p) : -8.0618, -3.5685, -0.0397468, -0.0135108, -6.22603e-05
 covariance      : [    9.409e-05-1.82425e-05-1.01186e-06 8.17307e-08 5.60861e-12
  -1.82425e-05  0.00010816 1.06357e-07-1.00223e-06-3.41668e-13
  -1.01186e-06 1.06357e-07  2.2485e-08-2.71326e-10 9.45842e-14
   8.17307e-08-1.00223e-06-2.71326e-10 2.22398e-08 3.03758e-14
   5.60861e-12-3.41668e-13 9.45842e-14 3.03758e-14 3.88548e-14 ]
 *** State ***
 z        : 9450
 location : BegRich2
 p               : 16034.2
 pt              : 651.891
 (x,y,tx,ty,q/p) : -46.2743, -129.726, 0.0383479, -0.0136057, -6.23668e-05
 covariance      : [   0.00229441 -0.00081096  4.7953e-06-2.33648e-07-2.33529e-10
   -0.00081096   0.0959141-9.29503e-07 4.04945e-05 1.48548e-09
    4.7953e-06-9.29503e-07 1.35676e-08-2.66228e-10-3.24503e-13
  -2.33648e-07 4.04945e-05-2.66228e-10 4.37019e-08 1.51093e-14
  -2.33529e-10 1.48548e-09-3.24503e-13 1.51093e-14 3.88549e-14 ]
DumpTracks          DEBUG *** Track ***
 key        : 4
 type       : Long
 history    : Unknown
 fitstatus  : Fitted
 # ids      : 33
 chi2PerDoF : 1.22569
 nDoF       : 27
 GhostProb  : 0.0244311
 Likelihood : -3.84913
 extraInfo : [ NCandCommonHits=1  FitVeloChi2=6.64709  FitVeloNDoF=11  FitTChi2=6.75955  FitTNDoF=7  FitMatchChi2=8.45461 ]
 p  : 29512.8
 pt : 1533.07
 3 states at z = 11.5135 186.141 9450  :-
 *** State ***
 z        : 11.5135
 location : ClosestToBeam
 p               : 29512.8
 pt              : 1533.07
 (x,y,tx,ty,q/p) : 0.0163, 0.1726, 0.0515554, -0.0069078, 3.38836e-05
 covariance      : [       0.0004 1.40248e-05-2.10673e-06 -3.6586e-08 2.10977e-11
   1.40248e-05  0.00035344 -4.2311e-08-1.94221e-06 3.44569e-12
  -2.10673e-06 -4.2311e-08 1.30074e-08 1.07503e-10-6.41033e-14
   -3.6586e-08-1.94221e-06 1.07503e-10 1.24925e-08-9.55984e-15
   2.10977e-11 3.44569e-12-6.41033e-14-9.55984e-15 1.49298e-14 ]
 *** State ***
 z        : 186.141
 location : FirstMeasurement
 p               : 29509.8
 pt              : 1532.47
 (x,y,tx,ty,q/p) : 9.0181, -1.0336, 0.0515401, -0.00690752, 3.3887e-05
 covariance      : [    3.721e-05 3.62883e-06-2.39741e-07-1.73592e-08 9.44094e-12
   3.62883e-06   3.249e-05-2.30151e-08-1.59101e-07 1.78759e-12
  -2.39741e-07-2.30151e-08 4.77481e-09 1.10301e-10-7.06405e-14
  -1.73592e-08-1.59101e-07 1.10301e-10 4.27978e-09-9.32568e-15
   9.44094e-12 1.78759e-12-7.06405e-14-9.32568e-15 1.49295e-14 ]
 *** State ***
 z        : 9450
 location : BegRich2
 p               : 29474.4
 pt              : 341.387
 (x,y,tx,ty,q/p) : 309.774, -67.3503, 0.00902606, -0.00725969, 3.39278e-05
 covariance      : [   0.00224676-0.000274611 3.48694e-06 -7.8803e-08  1.0232e-10
  -0.000274611   0.0904205-2.28105e-07  2.9169e-05-1.10225e-10
   3.48694e-06-2.28105e-07   8.091e-09-7.87328e-11 5.49172e-13
   -7.8803e-08  2.9169e-05-7.87328e-11 2.72745e-08 3.16142e-14
    1.0232e-10-1.10225e-10 5.49172e-13 3.16142e-14 1.49298e-14 ]
EventSelector     SUCCESS Reading Event record 3. Record number within stream 1: 3
PrintHeader          INFO Run 129929, Event 2194641729
StoreExplorerAlg     INFO ========= /Event[0x########@EventDataSvc]:
StoreExplorerAlg     INFO +--> /Event [Address: CLID=0x1 Type=0x2]  DataObject
StoreExplorerAlg     INFO | +--> /Rec [Address: CLID=0x1 Type=0x2]  DataObject
StoreExplorerAlg     INFO | | +--> /Header [Address: CLID=0x69 Type=0x2]  LHCb::RecHeader
StoreExplorerAlg     INFO | | +--> /Status [Address: CLID=0x######## Type=0x2]  LHCb::ProcStatus
StoreExplorerAlg     INFO | | +--> /Summary [Address: CLID=0x6a Type=0x2]  LHCb::RecSummary
StoreExplorerAlg     INFO | +--> /Trigger [Address: CLID=0x1 Type=0x2]  DataObject
StoreExplorerAlg     INFO | | +--> /RawEvent [Address: CLID=0x3ea Type=0x2]  LHCb::RawEvent
StoreExplorerAlg     INFO | +--> /Calo [Address: CLID=0x1 Type=0x2]  DataObject
StoreExplorerAlg     INFO | | +--> /RawEvent [Address: CLID=0x3ea Type=0x2]  LHCb::RawEvent
StoreExplorerAlg     INFO | +--> /Muon [Address: CLID=0x1 Type=0x2]  DataObject
StoreExplorerAlg     INFO | | +--> /RawEvent [Address: CLID=0x3ea Type=0x2]  LHCb::RawEvent
StoreExplorerAlg     INFO | +--> /Rich [Address: CLID=0x1 Type=0x2]  DataObject
StoreExplorerAlg     INFO | | +--> /RawEvent [Address: CLID=0x3ea Type=0x2]  LHCb::RawEvent
StoreExplorerAlg     INFO | +--> /Other [Address: CLID=0x1 Type=0x2]  DataObject
StoreExplorerAlg     INFO | | +--> /RawEvent [Address: CLID=0x3ea Type=0x2]  LHCb::RawEvent
StoreExplorerAlg     INFO | +--> /pRec [Address: CLID=0x1 Type=0x2]  DataObject
StoreExplorerAlg     INFO | | +--> /Track [Address: CLID=0x1 Type=0x2]  DataObject
StoreExplorerAlg     INFO | | | +--> /Best [Address: CLID=0x60e Type=0x2]  LHCb::PackedTracks
StoreExplorerAlg     INFO | | | +--> /Muon [Address: CLID=0x60e Type=0x2]  LHCb::PackedTracks
StoreExplorerAlg     INFO | | +--> /Rich [Address: CLID=0x1 Type=0x2]  DataObject
StoreExplorerAlg     INFO | | | +--> /PIDs [Address: CLID=0x619 Type=0x2]  LHCb::PackedRichPIDs
StoreExplorerAlg     INFO | | +--> /Muon [Address: CLID=0x1 Type=0x2]  DataObject
StoreExplorerAlg     INFO | | | +--> /MuonPID [Address: CLID=0x623 Type=0x2]  LHCb::PackedMuonPIDs
StoreExplorerAlg     INFO | | +--> /Calo [Address: CLID=0x1 Type=0x2]  DataObject
StoreExplorerAlg     INFO | | | +--> /Photons [Address: CLID=0x60f Type=0x2]  LHCb::PackedCaloHypos
StoreExplorerAlg     INFO | | | +--> /Electrons [Address: CLID=0x60f Type=0x2]  LHCb::PackedCaloHypos
StoreExplorerAlg     INFO | | | +--> /MergedPi0s [Address: CLID=0x60f Type=0x2]  LHCb::PackedCaloHypos
StoreExplorerAlg     INFO | | | +--> /SplitPhotons [Address: CLID=0x60f Type=0x2]  LHCb::PackedCaloHypos
StoreExplorerAlg     INFO | | +--> /ProtoP [Address: CLID=0x1 Type=0x2]  DataObject
StoreExplorerAlg     INFO | | | +--> /Charged [Address: CLID=0x610 Type=0x2]  LHCb::PackedProtoParticles
StoreExplorerAlg     INFO | | | +--> /Neutrals [Address: CLID=0x610 Type=0x2]  LHCb::PackedProtoParticles
StoreExplorerAlg     INFO | | +--> /Vertex [Address: CLID=0x1 Type=0x2]  DataObject
StoreExplorerAlg     INFO | | | +--> /Primary [Address: CLID=0x611 Type=0x2]  LHCb::PackedRecVertices
StoreExplorerAlg     INFO | |   +--> /V0 [Address: CLID=0x612 Type=0x2]  LHCb::PackedTwoProngVertices
StoreExplorerAlg     INFO | +--> /Strip [Address: CLID=0x1 Type=0x2]  DataObject
StoreExplorerAlg     INFO | | +--> /pPhys [Address: CLID=0x1 Type=0x2]  DataObject
StoreExplorerAlg     INFO | |   +--> /DecReports [Address: CLID=0x617 Type=0x2]  LHCb::PackedDecReport
StoreExplorerAlg     INFO | +--> /DAQ [Address: CLID=0x1 Type=0x2]  DataObject
StoreExplorerAlg     INFO | | +--> /ODIN [No Address]  LHCb::ODIN
StoreExplorerAlg     INFO   +--> /Dimuon [Address: CLID=0x1 Type=0x2]  DataObject
StoreExplorerAlg     INFO   | +--> /pPhys [Address: CLID=0x1 Type=0x2]  DataObject
StoreExplorerAlg     INFO   | | +--> /Particles [Address: CLID=0x62d Type=0x2]  LHCb::PackedParticles
StoreExplorerAlg     INFO   | | +--> /Vertices [Address: CLID=0x62e Type=0x2]  LHCb::PackedVertices
StoreExplorerAlg     INFO   | | +--> /Relations [Address: CLID=0x618 Type=0x2]  LHCb::PackedRelations
StoreExplorerAlg     INFO     +--> /pRec [Address: CLID=0x1 Type=0x2]  DataObject
StoreExplorerAlg     INFO       +--> /Vertex [Address: CLID=0x1 Type=0x2]  DataObject
StoreExplorerAlg     INFO         +--> /Primary [Address: CLID=0x611 Type=0x2]  LHCb::PackedRecVertices
DumpTracks           INFO There are 217 tracks in /Event/Rec/Track/Best
DumpTracks          DEBUG *** Track ***
 key        : 0
 type       : Long
 history    : Unknown
 fitstatus  : Fitted
 # ids      : 44
 chi2PerDoF : 1.83847
 nDoF       : 37
 GhostProb  : 0.180289
 Likelihood : -15.8056
 extraInfo : [ NCandCommonHits=1  FitVeloChi2=12.1354  FitVeloNDoF=15  FitTChi2=12.8576  FitTNDoF=12  FitMatchChi2=38.2766  NUTOutliers=0.578947 ]
 p  : 13339
 pt : 720.102
 4 states at z = 19.6877 46.887 169.454 9450  :-
 *** State ***
 z        : 19.6877
 location : ClosestToBeam
 p               : 13339
 pt              : 720.102
 (x,y,tx,ty,q/p) : 1.0099, -0.4668, -0.0227874, -0.0490267, 7.49683e-05
 covariance      : [   0.00133956-0.000139761-8.59737e-06 7.14108e-07-2.90857e-11
  -0.000139761  0.00126025 7.03775e-07-8.12913e-06-1.96824e-12
  -8.59737e-06 7.03775e-07 5.89761e-08-3.68639e-09 1.99723e-13
   7.14108e-07-8.12913e-06-3.68639e-09 5.60222e-08 8.74862e-15
  -2.90857e-11-1.96824e-12 1.99723e-13 8.74862e-15 7.68496e-14 ]
 *** State ***
 z        : 46.887
 location : V0Vertex
 p               : 13339
 pt              : 720.127
 (x,y,tx,ty,q/p) : 0.39, -1.8003, -0.0227919, -0.0490266, 7.49683e-05
 covariance      : [   0.00089401-0.000103763-6.78354e-06 6.11767e-07 -2.3485e-11
  -0.000103763    0.000841  6.0254e-07-6.40717e-06-1.60786e-12
  -6.78354e-06  6.0254e-07 5.67297e-08-3.68947e-09 1.93681e-13
   6.11767e-07-6.40717e-06-3.68947e-09  5.3773e-08  8.5712e-15
   -2.3485e-11-1.60786e-12 1.93681e-13  8.5712e-15 7.68497e-14 ]
 *** State ***
 z        : 169.454
 location : FirstMeasurement
 p               : 13337
 pt              : 720.152
 (x,y,tx,ty,q/p) : -2.4049, -7.8093, -0.0228158, -0.0490265, 7.49794e-05
 covariance      : [    4.624e-05-1.07886e-05-6.67386e-07 1.56169e-07-1.13106e-12
  -1.07886e-05   4.096e-05 1.46639e-07-6.52361e-07-5.32265e-13
  -6.67386e-07 1.46639e-07 3.05446e-08-3.71797e-09 1.69575e-13
   1.56169e-07-6.52361e-07-3.71797e-09 2.75361e-08 9.20043e-15
  -1.13106e-12-5.32265e-13 1.69575e-13 9.20043e-15 7.68517e-14 ]
 *** State ***
 z        : 9450
 location : BegRich2
 p               : 13299.9
 pt              : 1689.35
 (x,y,tx,ty,q/p) : -607.094, -460.998, -0.118474, -0.0486055, 7.51883e-05
 covariance      : [    0.0250272  -0.0456331 2.92115e-05-9.90961e-06-4.55811e-09
    -0.0456331     1.27126-4.24205e-05 0.000280817-6.20962e-09
   2.92115e-05-4.24205e-05 7.11662e-08-9.34433e-09-5.07816e-13
  -9.90961e-06 0.000280817-9.34433e-09 1.90279e-07 2.25325e-12
  -4.55811e-09-6.20962e-09-5.07816e-13 2.25325e-12 7.68505e-14 ]
DumpTracks          DEBUG *** Track ***
 key        : 1
 type       : Long
 history    : Unknown
 fitstatus  : Fitted
 # ids      : 46
 chi2PerDoF : 0.755428
 nDoF       : 41
 GhostProb  : 0.0035079
 Likelihood : -4.52545
 extraInfo : [ NCandCommonHits=1  FitVeloChi2=3.50382  FitVeloNDoF=14  FitTChi2=21.4802  FitTNDoF=18  FitMatchChi2=3.06568  NUTOutliers=1 ]
 p  : 11753.2
 pt : 674.95
 3 states at z = 1.5729 154.098 9450  :-
 *** State ***
 z        : 1.5729
 location : ClosestToBeam
 p               : 11753.2
 pt              : 674.95
 (x,y,tx,ty,q/p) : 0.4954, -0.2864, 0.0285962, 0.04991, 8.5083e-05
 covariance      : [   0.00168921-5.27642e-06-1.26213e-05  2.9296e-08-4.32596e-11
  -5.27642e-06  0.00154449 4.93651e-08-1.19615e-05-6.05341e-12
  -1.26213e-05 4.93651e-08 1.01984e-07 -2.9793e-10 3.07436e-13
    2.9296e-08-1.19615e-05 -2.9793e-10 9.88914e-08 2.01825e-14
  -4.32596e-11-6.05341e-12 3.07436e-13 2.01825e-14 1.48284e-13 ]
 *** State ***
 z        : 154.098
 location : FirstMeasurement
 p               : 11749.1
 pt              : 674.53
 (x,y,tx,ty,q/p) : 4.8547, 7.3262, 0.0285641, 0.0499104, 8.5113e-05
 covariance      : [    4.489e-05-2.80884e-06-5.48784e-07-3.35449e-08-3.44002e-13
  -2.80884e-06   2.809e-05-1.33311e-08 -3.7798e-07-3.06136e-12
  -5.48784e-07-1.33311e-08 2.19781e-08-4.12734e-10 2.51185e-13
  -3.35449e-08 -3.7798e-07-4.12734e-10 1.87471e-08 1.93324e-14
  -3.44002e-13-3.06136e-12 2.51185e-13 1.93324e-14 1.48284e-13 ]
 *** State ***
 z        : 9450
 location : BegRich2
 p               : 11710.6
 pt              : 1083.14
 (x,y,tx,ty,q/p) : -179.494, 465.544, -0.0791285, 0.0486544, 8.53924e-05
 covariance      : [     0.006724 -0.00547287 1.35339e-05-2.31985e-06-3.78916e-10
   -0.00547287    0.661945-1.37242e-05 0.000276922-2.77792e-09
   1.35339e-05-1.37242e-05 6.78342e-08-5.46199e-09-2.05601e-12
  -2.31985e-06 0.000276922-5.46199e-09  3.1219e-07  6.0818e-12
  -3.78916e-10-2.77792e-09-2.05601e-12  6.0818e-12 1.48284e-13 ]
DumpTracks          DEBUG *** Track ***
 key        : 2
 type       : Long
 history    : Unknown
 fitstatus  : Fitted
 # ids      : 43
 chi2PerDoF : 0.848764
 nDoF       : 38
 GhostProb  : 0.00447321
 Likelihood : -4.00317
 extraInfo : [ NCandCommonHits=1  FitVeloChi2=4.54499  FitVeloNDoF=13  FitTChi2=13.2557  FitTNDoF=16  FitMatchChi2=3.96612  NUTOutliers=0.904762 ]
 p  : 7816.78
 pt : 379.577
 3 states at z = 22.8237 199.206 9450  :-
 *** State ***
 z        : 22.8237
 location : ClosestToBeam
 p               : 7816.78
 pt              : 379.577
 (x,y,tx,ty,q/p) : -0.0459, 0.111, -0.0484834, 0.003596, 0.00012793
 covariance      : [   0.00458329-0.000151777-3.18371e-05 6.25677e-07-1.97254e-11
  -0.000151777  0.00497025  6.5204e-07-3.36582e-05-7.18942e-12
  -3.18371e-05  6.5204e-07 2.34479e-07-2.66761e-09 1.48142e-13
   6.25677e-07-3.36582e-05-2.66761e-09 2.43384e-07 3.59355e-14
  -1.97254e-11-7.18942e-12 1.48142e-13 3.59355e-14  1.9101e-13 ]
 *** State ***
 z        : 199.206
 location : FirstMeasurement
 p               : 7812.53
 pt              : 379.835
 (x,y,tx,ty,q/p) : -8.6025, 0.7453, -0.0485432, 0.00359629, 0.000128
 covariance      : [    4.489e-05-8.44977e-06-8.30968e-07 1.60887e-07-1.46413e-12
  -8.44977e-06   6.724e-05 1.88761e-07-1.07881e-06-2.38923e-13
  -8.30968e-07 1.88761e-07 3.95851e-08-2.63386e-09 5.50723e-14
   1.60887e-07-1.07881e-06-2.63386e-09 4.89516e-08 3.86793e-14
  -1.46413e-12-2.38923e-13 5.50723e-14 3.86793e-14 1.91016e-13 ]
 *** State ***
 z        : 9450
 location : BegRich2
 p               : 7776.06
 pt              : 1620.51
 (x,y,tx,ty,q/p) : -1139.71, 44.4748, -0.213024, 0.00467118, 0.0001286
 covariance      : [    0.0135723  -0.0229324  2.0908e-05-7.25444e-06 1.45624e-09
    -0.0229324     1.16338 -3.5965e-05  0.00039608-2.91333e-08
    2.0908e-05 -3.5965e-05 8.49548e-08-9.24106e-09 1.24205e-11
  -7.25444e-06  0.00039608-9.24106e-09 4.32675e-07 3.64153e-13
   1.45624e-09-2.91333e-08 1.24205e-11 3.64153e-13 1.91021e-13 ]
DumpTracks          DEBUG *** Track ***
 key        : 3
 type       : Long
 history    : Unknown
 fitstatus  : Fitted
 # ids      : 45
 chi2PerDoF : 1.65997
 nDoF       : 38
 GhostProb  : 0.0889406
 Likelihood : -10.481
 extraInfo : [ NCandCommonHits=1  FitVeloChi2=6.27882  FitVeloNDoF=12  FitTChi2=21.4506  FitTNDoF=18  FitMatchChi2=32.9223  NUTOutliers=0.75 ]
 p  : 3778.3
 pt : 222.191
 3 states at z = 0.0611 154.098 9450  :-
 *** State ***
 z        : 0.0611
 location : ClosestToBeam
 p               : 3778.3
 pt              : 222.191
 (x,y,tx,ty,q/p) : 0.265, 0.3942, 0.0423888, -0.0409083, -0.000264669
 covariance      : [    0.0107122 0.000125435-9.18849e-05-7.49875e-07-1.65579e-11
   0.000125435    0.011236 -6.7842e-07-9.45046e-05           0
  -9.18849e-05 -6.7842e-07 8.28064e-07 3.08784e-09 1.87172e-13
  -7.49875e-07-9.45046e-05 3.08784e-09 8.41091e-07           0
  -1.65579e-11           0 1.87172e-13           0 4.70083e-13 ]
 *** State ***
 z        : 154.098
 location : FirstMeasurement
 p               : 3774.8
 pt              : 222.26
 (x,y,tx,ty,q/p) : 6.8017, -5.9074, 0.0424885, -0.0409102, -0.000264915
 covariance      : [    3.844e-05 8.02456e-06-8.46479e-07-8.29612e-08-8.50176e-13
   8.02456e-06   6.241e-05-9.80084e-09-1.47249e-06-3.61096e-13
  -8.46479e-07-9.80084e-09 9.46116e-08 4.33793e-09 7.02972e-15
  -8.29612e-08-1.47249e-06 4.33793e-09 1.07735e-07           0
  -8.50176e-13-3.61096e-13 7.02972e-15           0 4.70083e-13 ]
 *** State ***
 z        : 9450
 location : BegRich2
 p               : 3750.29
 pt              : 1405.37
 (x,y,tx,ty,q/p) : 1873.7, -385.324, 0.402325, -0.0387775, -0.000266646
 covariance      : [    0.0155501  -0.0588141 4.15424e-05-2.45865e-05-9.54724e-10
    -0.0588141     1.77076-1.74265e-05 0.000778967 2.88611e-08
   4.15424e-05-1.74265e-05 3.53264e-07-2.24431e-08 4.46902e-12
  -2.45865e-05 0.000778967-2.24431e-08 1.01572e-06-3.36284e-12
  -9.54724e-10 2.88611e-08 4.46902e-12-3.36284e-12 4.70084e-13 ]
DumpTracks          DEBUG *** Track ***
 key        : 4
 type       : Long
 history    : Unknown
 fitstatus  : Fitted
 # ids      : 44
 chi2PerDoF : 0.97487
 nDoF       : 38
 GhostProb  : 0.00340474
 Likelihood : -4.8834
 extraInfo : [ NCandCommonHits=1  FitVeloChi2=6.61921  FitVeloNDoF=11  FitTChi2=23.3211  FitTNDoF=18  FitMatchChi2=3.89386  NUTOutliers=0.958333 ]
 p  : 5557.5
 pt : 522.832
 3 states at z = 10.0559 109.406 9450  :-
 *** State ***
 z        : 10.0559
 location : ClosestToBeam
 p               : 5557.5
 pt              : 522.832
 (x,y,tx,ty,q/p) : 0.5928, 0.2356, -0.0308022, 0.0893349, -0.000179937
 covariance      : [   0.00242064 0.000135461-2.62612e-05 -1.0578e-06-2.50469e-11
   0.000135461  0.00186624-1.08184e-06-2.21399e-05-8.24714e-12
  -2.62612e-05-1.08184e-06 3.19078e-07 8.34886e-09 2.69593e-13
   -1.0578e-06-2.21399e-05 8.34886e-09 2.87468e-07 7.67671e-14
  -2.50469e-11-8.24714e-12 2.69593e-13 7.67671e-14 2.27782e-13 ]
 *** State ***
 z        : 109.406
 location : FirstMeasurement
 p               : 5555.05
 pt              : 522.523
 (x,y,tx,ty,q/p) : -2.4653, 9.111, -0.0307594, 0.0893344, -0.000180016
 covariance      : [    7.569e-05 1.09134e-05-1.58478e-06-1.70356e-07-9.68837e-13
   1.09134e-05   2.704e-05-1.93531e-07-6.37534e-07  -3.309e-13
  -1.58478e-06-1.93531e-07 1.03176e-07 8.93585e-09 2.19731e-13
  -1.70356e-07-6.37534e-07 8.93585e-09 7.00185e-08 7.57726e-14
  -9.68837e-13  -3.309e-13 2.19731e-13 7.57726e-14 2.27777e-13 ]
 *** State ***
 z        : 9450
 location : BegRich2
 p               : 5524.72
 pt              : 1186.94
 (x,y,tx,ty,q/p) : 682.519, 834.534, 0.202485, 0.0859693, -0.000181005
 covariance      : [    0.0120341  0.00211431 2.31952e-05 6.75961e-07 -1.3333e-09
    0.00211431    0.831744-2.76402e-06 0.000286862 8.93727e-09
   2.31952e-05-2.76402e-06  1.3441e-07 8.79773e-10 1.92468e-12
   6.75961e-07 0.000286862 8.79773e-10  3.7221e-07 1.23358e-11
   -1.3333e-09 8.93727e-09 1.92468e-12 1.23358e-11 2.27772e-13 ]
EventSelector     SUCCESS Reading Event record 4. Record number within stream 1: 4
PrintHeader          INFO Run 129929, Event 2451462780
StoreExplorerAlg     INFO ========= /Event[0x########@EventDataSvc]:
StoreExplorerAlg     INFO +--> /Event [Address: CLID=0x1 Type=0x2]  DataObject
StoreExplorerAlg     INFO | +--> /Rec [Address: CLID=0x1 Type=0x2]  DataObject
StoreExplorerAlg     INFO | | +--> /Header [Address: CLID=0x69 Type=0x2]  LHCb::RecHeader
StoreExplorerAlg     INFO | | +--> /Status [Address: CLID=0x######## Type=0x2]  LHCb::ProcStatus
StoreExplorerAlg     INFO | | +--> /Summary [Address: CLID=0x6a Type=0x2]  LHCb::RecSummary
StoreExplorerAlg     INFO | +--> /Trigger [Address: CLID=0x1 Type=0x2]  DataObject
StoreExplorerAlg     INFO | | +--> /RawEvent [Address: CLID=0x3ea Type=0x2]  LHCb::RawEvent
StoreExplorerAlg     INFO | +--> /Calo [Address: CLID=0x1 Type=0x2]  DataObject
StoreExplorerAlg     INFO | | +--> /RawEvent [Address: CLID=0x3ea Type=0x2]  LHCb::RawEvent
StoreExplorerAlg     INFO | +--> /Muon [Address: CLID=0x1 Type=0x2]  DataObject
StoreExplorerAlg     INFO | | +--> /RawEvent [Address: CLID=0x3ea Type=0x2]  LHCb::RawEvent
StoreExplorerAlg     INFO | +--> /Rich [Address: CLID=0x1 Type=0x2]  DataObject
StoreExplorerAlg     INFO | | +--> /RawEvent [Address: CLID=0x3ea Type=0x2]  LHCb::RawEvent
StoreExplorerAlg     INFO | +--> /Other [Address: CLID=0x1 Type=0x2]  DataObject
StoreExplorerAlg     INFO | | +--> /RawEvent [Address: CLID=0x3ea Type=0x2]  LHCb::RawEvent
StoreExplorerAlg     INFO | +--> /pRec [Address: CLID=0x1 Type=0x2]  DataObject
StoreExplorerAlg     INFO | | +--> /Track [Address: CLID=0x1 Type=0x2]  DataObject
StoreExplorerAlg     INFO | | | +--> /Best [Address: CLID=0x60e Type=0x2]  LHCb::PackedTracks
StoreExplorerAlg     INFO | | | +--> /Muon [Address: CLID=0x60e Type=0x2]  LHCb::PackedTracks
StoreExplorerAlg     INFO | | +--> /Rich [Address: CLID=0x1 Type=0x2]  DataObject
StoreExplorerAlg     INFO | | | +--> /PIDs [Address: CLID=0x619 Type=0x2]  LHCb::PackedRichPIDs
StoreExplorerAlg     INFO | | +--> /Muon [Address: CLID=0x1 Type=0x2]  DataObject
StoreExplorerAlg     INFO | | | +--> /MuonPID [Address: CLID=0x623 Type=0x2]  LHCb::PackedMuonPIDs
StoreExplorerAlg     INFO | | +--> /Calo [Address: CLID=0x1 Type=0x2]  DataObject
StoreExplorerAlg     INFO | | | +--> /Photons [Address: CLID=0x60f Type=0x2]  LHCb::PackedCaloHypos
StoreExplorerAlg     INFO | | | +--> /Electrons [Address: CLID=0x60f Type=0x2]  LHCb::PackedCaloHypos
StoreExplorerAlg     INFO | | | +--> /MergedPi0s [Address: CLID=0x60f Type=0x2]  LHCb::PackedCaloHypos
StoreExplorerAlg     INFO | | | +--> /SplitPhotons [Address: CLID=0x60f Type=0x2]  LHCb::PackedCaloHypos
StoreExplorerAlg     INFO | | +--> /ProtoP [Address: CLID=0x1 Type=0x2]  DataObject
StoreExplorerAlg     INFO | | | +--> /Charged [Address: CLID=0x610 Type=0x2]  LHCb::PackedProtoParticles
StoreExplorerAlg     INFO | | | +--> /Neutrals [Address: CLID=0x610 Type=0x2]  LHCb::PackedProtoParticles
StoreExplorerAlg     INFO | | +--> /Vertex [Address: CLID=0x1 Type=0x2]  DataObject
StoreExplorerAlg     INFO | | | +--> /Primary [Address: CLID=0x611 Type=0x2]  LHCb::PackedRecVertices
StoreExplorerAlg     INFO | |   +--> /V0 [Address: CLID=0x612 Type=0x2]  LHCb::PackedTwoProngVertices
StoreExplorerAlg     INFO | +--> /Strip [Address: CLID=0x1 Type=0x2]  DataObject
StoreExplorerAlg     INFO | | +--> /pPhys [Address: CLID=0x1 Type=0x2]  DataObject
StoreExplorerAlg     INFO | |   +--> /DecReports [Address: CLID=0x617 Type=0x2]  LHCb::PackedDecReport
StoreExplorerAlg     INFO | +--> /Dimuon [Address: CLID=0x1 Type=0x2]  DataObject
StoreExplorerAlg     INFO | | +--> /pPhys [Address: CLID=0x1 Type=0x2]  DataObject
StoreExplorerAlg     INFO | | | +--> /Particles [Address: CLID=0x62d Type=0x2]  LHCb::PackedParticles
StoreExplorerAlg     INFO | | | +--> /Vertices [Address: CLID=0x62e Type=0x2]  LHCb::PackedVertices
StoreExplorerAlg     INFO | | | +--> /RecVertices [Address: CLID=0x611 Type=0x2]  LHCb::PackedRecVertices
StoreExplorerAlg     INFO | | | +--> /Relations [Address: CLID=0x618 Type=0x2]  LHCb::PackedRelations
StoreExplorerAlg     INFO | | +--> /pRec [Address: CLID=0x1 Type=0x2]  DataObject
StoreExplorerAlg     INFO | |   +--> /Vertex [Address: CLID=0x1 Type=0x2]  DataObject
StoreExplorerAlg     INFO | |     +--> /Primary [Address: CLID=0x611 Type=0x2]  LHCb::PackedRecVertices
StoreExplorerAlg     INFO   +--> /DAQ [Address: CLID=0x1 Type=0x2]  DataObject
StoreExplorerAlg     INFO     +--> /ODIN [No Address]  LHCb::ODIN
DumpTracks           INFO There are 364 tracks in /Event/Rec/Track/Best
DumpTracks          DEBUG *** Track ***
 key        : 0
 type       : Long
 history    : Unknown
 fitstatus  : Fitted
 # ids      : 44
 chi2PerDoF : 1.43533
 nDoF       : 37
 GhostProb  : 0.0701824
 Likelihood : -11.6327
 extraInfo : [ NCandCommonHits=1  FitVeloChi2=11.4249  FitVeloNDoF=13  FitTChi2=18.3318  FitTNDoF=15  FitMatchChi2=20.7515  NUTOutliers=0.818182 ]
 p  : 3607.11
 pt : 218.023
 3 states at z = 12.6324 169.454 9450  :-
 *** State ***
 z        : 12.6324
 location : ClosestToBeam
 p               : 3607.11
 pt              : 218.023
 (x,y,tx,ty,q/p) : 0.3732, -0.0719, -0.0485963, -0.0361262, -0.00027723
 covariance      : [    0.0124323-0.000734266-0.000103782 4.08997e-06-1.55087e-11
  -0.000734266   0.0133634  4.0919e-06-0.000108586 6.43157e-12
  -0.000103782  4.0919e-06 9.20199e-07-2.18211e-08 2.40167e-13
   4.08997e-06-0.000108586-2.18211e-08 9.45017e-07-2.70426e-14
  -1.55087e-11 6.43157e-12 2.40167e-13-2.70426e-14 6.96467e-13 ]
 *** State ***
 z        : 169.454
 location : FirstMeasurement
 p               : 3603.67
 pt              : 217.5
 (x,y,tx,ty,q/p) : -7.2396, -5.7373, -0.0484864, -0.0361265, -0.000277495
 covariance      : [    5.625e-05-1.93704e-05-1.37396e-06 4.60985e-07-2.08635e-13
  -1.93704e-05   9.216e-05   4.648e-07-2.27377e-06 2.67052e-13
  -1.37396e-06   4.648e-07 1.23749e-07-2.31406e-08 -4.8929e-14
   4.60985e-07-2.27377e-06-2.31406e-08 1.49436e-07-3.22607e-14
  -2.08635e-13 2.67052e-13 -4.8929e-14-3.22607e-14 6.96454e-13 ]
 *** State ***
 z        : 9450
 location : BegRich2
 p               : 3574.9
 pt              : 1090.17
 (x,y,tx,ty,q/p) : 1054.97, -337.76, 0.3185, -0.0329649, -0.000279728
 covariance      : [     0.031117   0.0186962 7.55896e-05 9.11154e-06-2.63021e-09
     0.0186962     1.73923-1.40696e-05  0.00104184-6.82367e-09
   7.55896e-05-1.40696e-05 4.11381e-07-6.64095e-09-8.51073e-12
   9.11154e-06  0.00104184-6.64095e-09 1.37394e-06 8.08651e-12
  -2.63021e-09-6.82367e-09-8.51073e-12 8.08651e-12 6.96458e-13 ]
DumpTracks          DEBUG *** Track ***
 key        : 1
 type       : Long
 history    : Unknown
 fitstatus  : Fitted
 # ids      : 43
 chi2PerDoF : 1.07958
 nDoF       : 37
 GhostProb  : 0.0130889
 Likelihood : -6.2819
 extraInfo : [ NCandCommonHits=1  FitVeloChi2=11.4779  FitVeloNDoF=13  FitTChi2=17.3751  FitTNDoF=15  FitMatchChi2=9.33185  NUTOutliers=1 ]
 p  : 26593.9
 pt : 1315.23
 3 states at z = 17.6784 199.206 9450  :-
 *** State ***
 z        : 17.6784
 location : ClosestToBeam
 p               : 26593.9
 pt              : 1315.23
 (x,y,tx,ty,q/p) : 0.0668, 0.2301, -0.0480426, 0.0119926, -3.76027e-05
 covariance      : [   0.00035344-3.77861e-06-1.73011e-06 1.59373e-08  1.8392e-11
  -3.77861e-06  0.00039601 2.39646e-08-1.81715e-06 1.14039e-12
  -1.73011e-06 2.39646e-08  9.2814e-09-5.82017e-11-5.08709e-14
   1.59373e-08-1.81715e-06-5.82017e-11 9.49455e-09-1.19655e-15
    1.8392e-11 1.14039e-12-5.08709e-14-1.19655e-15 1.50796e-14 ]
 *** State ***
 z        : 199.206
 location : FirstMeasurement
 p               : 26592.6
 pt              : 1314.7
 (x,y,tx,ty,q/p) : -8.6528, 2.4071, -0.0480246, 0.0119925, -3.76045e-05
 covariance      : [    2.601e-05 1.63027e-06-1.67759e-07 5.85436e-09 8.55925e-12
   1.63027e-06   4.356e-05 1.38077e-08-2.17483e-07 9.18553e-13
  -1.67759e-07 1.38077e-08 5.24031e-09-5.58144e-11-5.80786e-14
   5.85436e-09-2.17483e-07-5.58144e-11 5.46121e-09   -1.21e-15
   8.55925e-12 9.18553e-13-5.80786e-14   -1.21e-15 1.50802e-14 ]
 *** State ***
 z        : 9450
 location : BegRich2
 p               : 26557.3
 pt              : 307.912
 (x,y,tx,ty,q/p) : -257.076, 109.809, -0.00100178, 0.0115517, -3.76545e-05
 covariance      : [   0.00175561 -0.00180201 4.05945e-06-3.34308e-07-4.97376e-12
   -0.00180201   0.0732244-2.09066e-06  2.2964e-05 1.17521e-09
   4.05945e-06-2.09066e-06 1.26473e-08-3.42659e-10 1.93339e-13
  -3.34308e-07  2.2964e-05-3.42659e-10 3.00849e-08-1.34896e-14
  -4.97376e-12 1.17521e-09 1.93339e-13-1.34896e-14 1.50795e-14 ]
DumpTracks          DEBUG *** Track ***
 key        : 2
 type       : Long
 history    : Unknown
 fitstatus  : Fitted
 # ids      : 43
 chi2PerDoF : 1.40832
 nDoF       : 37
 GhostProb  : 0.0751585
 Likelihood : -10.8544
 extraInfo : [ NCandCommonHits=1  FitVeloChi2=2.77066  FitVeloNDoF=13  FitTChi2=34.4744  FitTNDoF=15  FitMatchChi2=13.4596  NUTOutliers=0.809524 ]
 p  : 5003.9
 pt : 260.787
 3 states at z = 10.7464 199.206 9450  :-
 *** State ***
 z        : 10.7464
 location : ClosestToBeam
 p               : 5003.9
 pt              : 260.787
 (x,y,tx,ty,q/p) : 0.5819, -0.1063, -0.0076278, -0.0516272, 0.000199844
 covariance      : [    0.0136189 0.000251197-8.86115e-05-1.06674e-06-2.64065e-11
   0.000251197   0.0126563-9.82484e-07-8.42419e-05           0
  -8.86115e-05-9.82484e-07 6.34157e-07 4.22194e-09 2.29337e-13
  -1.06674e-06-8.42419e-05 4.22194e-09 6.13872e-07           0
  -2.64065e-11           0 2.29337e-13           0 3.80835e-13 ]
 *** State ***
 z        : 199.206
 location : FirstMeasurement
 p               : 4999.3
 pt              : 260.614
 (x,y,tx,ty,q/p) : -0.8643, -9.8359, -0.00772554, -0.0516263, 0.000200028
 covariance      : [    9.409e-05 7.52972e-06-1.91318e-06-3.10571e-07-5.98613e-13
   7.52972e-06   5.476e-05 -2.2634e-07-1.39095e-06           0
  -1.91318e-06 -2.2634e-07 1.36678e-07 4.01394e-09 3.80253e-14
  -3.10571e-07-1.39095e-06 4.01394e-09 1.15118e-07           0
  -5.98613e-13           0 3.80253e-14           0 3.80845e-13 ]
 *** State ***
 z        : 9450
 location : BegRich2
 p               : 4947.66
 pt              : 1292.59
 (x,y,tx,ty,q/p) : -1137.49, -481.828, -0.266122, -0.0493134, 0.000202116
 covariance      : [     0.016538  0.00111859 5.08529e-05  7.3104e-08 2.09515e-09
    0.00111859     1.47307-3.33838e-05 0.000832252 1.30076e-08
   5.08529e-05-3.33838e-05 3.39598e-07-1.39133e-08 1.00815e-11
    7.3104e-08 0.000832252-1.39133e-08 1.29259e-06 1.05476e-11
   2.09515e-09 1.30076e-08 1.00815e-11 1.05476e-11 3.80837e-13 ]
DumpTracks          DEBUG *** Track ***
 key        : 3
 type       : Long
 history    : Unknown
 fitstatus  : Fitted
 # ids      : 48
 chi2PerDoF : 1.47728
 nDoF       : 42
 GhostProb  : 0.00539682
 Likelihood : -13.553
 extraInfo : [ NCandCommonHits=1  FitVeloChi2=13.2667  FitVeloNDoF=11  FitTChi2=37.9194  FitTNDoF=22  FitMatchChi2=2.88552  NUTOutliers=0.9 ]
 p  : 10098.3
 pt : 915.968
 3 states at z = -16.5737 94.1031 9450  :-
 *** State ***
 z        : -16.5737
 location : ClosestToBeam
 p               : 10098.3
 pt              : 915.968
 (x,y,tx,ty,q/p) : -0.0063, 0.2191, 0.0902042, -0.012606, 9.90267e-05
 covariance      : [   0.00050625-1.03084e-05-4.37748e-06 6.27168e-08-1.25301e-11
  -1.03084e-05  0.00065025 8.21467e-08-5.06015e-06 3.12417e-12
  -4.37748e-06 8.21467e-08 4.05378e-08-4.74011e-10 1.48005e-13
   6.27168e-08-5.06015e-06-4.74011e-10 4.39238e-08 1.16714e-14
  -1.25301e-11 3.12417e-12 1.48005e-13 1.16714e-14 1.11647e-13 ]
 *** State ***
 z        : 94.1031
 location : FirstMeasurement
 p               : 10097.4
 pt              : 915.638
 (x,y,tx,ty,q/p) : 9.9759, -1.1761, 0.0901792, -0.0126053, 9.90356e-05
 covariance      : [    2.209e-05  1.8565e-07  -3.388e-07 1.29643e-08 2.30331e-12
    1.8565e-07   5.625e-05 3.21504e-08-6.27225e-07 4.51084e-12
    -3.388e-07 3.21504e-08 1.91629e-08-4.51391e-10  1.1872e-13
   1.29643e-08-6.27225e-07-4.51391e-10 2.27195e-08 1.17517e-14
   2.30331e-12 4.51084e-12  1.1872e-13 1.17517e-14 1.11647e-13 ]
 *** State ***
 z        : 9450
 location : BegRich2
 p               : 10056.1
 pt              : 359.265
 (x,y,tx,ty,q/p) : 339.355, -123.436, -0.0332783, -0.0130594, 9.94424e-05
 covariance      : [   0.00839056   -0.003954 2.09341e-05-2.81889e-06-1.25488e-10
     -0.003954    0.276886-7.96327e-06 0.000210042  2.3443e-09
   2.09341e-05-7.96327e-06 1.05164e-07-6.13945e-09 -1.3364e-12
  -2.81889e-06 0.000210042-6.13945e-09 3.25174e-07 3.68373e-13
  -1.25488e-10  2.3443e-09 -1.3364e-12 3.68373e-13 1.11647e-13 ]
DumpTracks          DEBUG *** Track ***
 key        : 4
 type       : Long
 history    : Unknown
 fitstatus  : Fitted
 # ids      : 44
 chi2PerDoF : 1.10236
 nDoF       : 37
 GhostProb  : 0.000827585
 Likelihood : -5.53536
 extraInfo : [ NCandCommonHits=1  FitVeloChi2=6.57375  FitVeloNDoF=11  FitTChi2=22.9762  FitTNDoF=17  FitMatchChi2=7.39786  NUTOutliers=0.923077 ]
 p  : 4903.32
 pt : 340.275
 3 states at z = 14.6315 139.411 9450  :-
 *** State ***
 z        : 14.6315
 location : ClosestToBeam
 p               : 4903.32
 pt              : 340.275
 (x,y,tx,ty,q/p) : 0.0814, -0.1586, -0.0678369, -0.0154076, -0.000203943
 covariance      : [   0.00207936-0.000151565-1.60597e-05 8.38634e-07-1.49591e-11
  -0.000151565  0.00215296 9.03424e-07 -1.6537e-05-3.58155e-12
  -1.60597e-05 9.03424e-07 1.28415e-07-5.08294e-09 1.59048e-13
   8.38634e-07 -1.6537e-05-5.08294e-09 1.32278e-07 2.80735e-14
  -1.49591e-11-3.58155e-12 1.59048e-13 2.80735e-14 3.35141e-13 ]
 *** State ***
 z        : 139.411
 location : FirstMeasurement
 p               : 4902.74
 pt              : 339.938
 (x,y,tx,ty,q/p) : -8.3795, -2.0811, -0.0677743, -0.0154077, -0.000203968
 covariance      : [    4.489e-05-1.42784e-05-9.97774e-07 1.96667e-07 -1.6808e-12
  -1.42784e-05   5.929e-05 2.61186e-07-9.91807e-07 -2.9718e-13
  -9.97774e-07 2.61186e-07 6.91059e-08-5.14584e-09 5.58018e-14
   1.96667e-07-9.91807e-07-5.14584e-09 7.32352e-08 2.61113e-14
   -1.6808e-12 -2.9718e-13 5.58018e-14 2.61113e-14  3.3515e-13 ]
 *** State ***
 z        : 9450
 location : BegRich2
 p               : 4858.75
 pt              : 907.603
 (x,y,tx,ty,q/p) : 426.835, -131.573, 0.18969, -0.013142, -0.000205814
 covariance      : [    0.0154505 -0.00878006 6.13423e-05-1.14115e-05-5.92463e-10
   -0.00878006    0.861555-3.52053e-05  0.00100297 2.20313e-09
   6.13423e-05-3.52053e-05 4.16554e-07-5.02455e-08-5.75401e-12
  -1.14115e-05  0.00100297-5.02455e-08 1.87197e-06-1.05609e-13
  -5.92463e-10 2.20313e-09-5.75401e-12-1.05609e-13 3.35142e-13 ]
EventSelector     SUCCESS Reading Event record 5. Record number within stream 1: 5
PrintHeader          INFO Run 129929, Event 2084883817
StoreExplorerAlg     INFO ========= /Event[0x########@EventDataSvc]:
StoreExplorerAlg     INFO +--> /Event [Address: CLID=0x1 Type=0x2]  DataObject
StoreExplorerAlg     INFO | +--> /Rec [Address: CLID=0x1 Type=0x2]  DataObject
StoreExplorerAlg     INFO | | +--> /Header [Address: CLID=0x69 Type=0x2]  LHCb::RecHeader
StoreExplorerAlg     INFO | | +--> /Status [Address: CLID=0x######## Type=0x2]  LHCb::ProcStatus
StoreExplorerAlg     INFO | | +--> /Summary [Address: CLID=0x6a Type=0x2]  LHCb::RecSummary
StoreExplorerAlg     INFO | +--> /Trigger [Address: CLID=0x1 Type=0x2]  DataObject
StoreExplorerAlg     INFO | | +--> /RawEvent [Address: CLID=0x3ea Type=0x2]  LHCb::RawEvent
StoreExplorerAlg     INFO | +--> /Calo [Address: CLID=0x1 Type=0x2]  DataObject
StoreExplorerAlg     INFO | | +--> /RawEvent [Address: CLID=0x3ea Type=0x2]  LHCb::RawEvent
StoreExplorerAlg     INFO | +--> /Muon [Address: CLID=0x1 Type=0x2]  DataObject
StoreExplorerAlg     INFO | | +--> /RawEvent [Address: CLID=0x3ea Type=0x2]  LHCb::RawEvent
StoreExplorerAlg     INFO | +--> /Rich [Address: CLID=0x1 Type=0x2]  DataObject
StoreExplorerAlg     INFO | | +--> /RawEvent [Address: CLID=0x3ea Type=0x2]  LHCb::RawEvent
StoreExplorerAlg     INFO | +--> /Other [Address: CLID=0x1 Type=0x2]  DataObject
StoreExplorerAlg     INFO | | +--> /RawEvent [Address: CLID=0x3ea Type=0x2]  LHCb::RawEvent
StoreExplorerAlg     INFO | +--> /pRec [Address: CLID=0x1 Type=0x2]  DataObject
StoreExplorerAlg     INFO | | +--> /Track [Address: CLID=0x1 Type=0x2]  DataObject
StoreExplorerAlg     INFO | | | +--> /Best [Address: CLID=0x60e Type=0x2]  LHCb::PackedTracks
StoreExplorerAlg     INFO | | | +--> /Muon [Address: CLID=0x60e Type=0x2]  LHCb::PackedTracks
StoreExplorerAlg     INFO | | +--> /Rich [Address: CLID=0x1 Type=0x2]  DataObject
StoreExplorerAlg     INFO | | | +--> /PIDs [Address: CLID=0x619 Type=0x2]  LHCb::PackedRichPIDs
StoreExplorerAlg     INFO | | +--> /Muon [Address: CLID=0x1 Type=0x2]  DataObject
StoreExplorerAlg     INFO | | | +--> /MuonPID [Address: CLID=0x623 Type=0x2]  LHCb::PackedMuonPIDs
StoreExplorerAlg     INFO | | +--> /Calo [Address: CLID=0x1 Type=0x2]  DataObject
StoreExplorerAlg     INFO | | | +--> /Photons [Address: CLID=0x60f Type=0x2]  LHCb::PackedCaloHypos
StoreExplorerAlg     INFO | | | +--> /Electrons [Address: CLID=0x60f Type=0x2]  LHCb::PackedCaloHypos
StoreExplorerAlg     INFO | | | +--> /MergedPi0s [Address: CLID=0x60f Type=0x2]  LHCb::PackedCaloHypos
StoreExplorerAlg     INFO | | | +--> /SplitPhotons [Address: CLID=0x60f Type=0x2]  LHCb::PackedCaloHypos
StoreExplorerAlg     INFO | | +--> /ProtoP [Address: CLID=0x1 Type=0x2]  DataObject
StoreExplorerAlg     INFO | | | +--> /Charged [Address: CLID=0x610 Type=0x2]  LHCb::PackedProtoParticles
StoreExplorerAlg     INFO | | | +--> /Neutrals [Address: CLID=0x610 Type=0x2]  LHCb::PackedProtoParticles
StoreExplorerAlg     INFO | | +--> /Vertex [Address: CLID=0x1 Type=0x2]  DataObject
StoreExplorerAlg     INFO | | | +--> /Primary [Address: CLID=0x611 Type=0x2]  LHCb::PackedRecVertices
StoreExplorerAlg     INFO | |   +--> /V0 [Address: CLID=0x612 Type=0x2]  LHCb::PackedTwoProngVertices
StoreExplorerAlg     INFO | +--> /Strip [Address: CLID=0x1 Type=0x2]  DataObject
StoreExplorerAlg     INFO | | +--> /pPhys [Address: CLID=0x1 Type=0x2]  DataObject
StoreExplorerAlg     INFO | |   +--> /DecReports [Address: CLID=0x617 Type=0x2]  LHCb::PackedDecReport
StoreExplorerAlg     INFO | +--> /DAQ [Address: CLID=0x1 Type=0x2]  DataObject
StoreExplorerAlg     INFO | | +--> /ODIN [No Address]  LHCb::ODIN
StoreExplorerAlg     INFO   +--> /Dimuon [Address: CLID=0x1 Type=0x2]  DataObject
StoreExplorerAlg     INFO   | +--> /pPhys [Address: CLID=0x1 Type=0x2]  DataObject
StoreExplorerAlg     INFO   | | +--> /Particles [Address: CLID=0x62d Type=0x2]  LHCb::PackedParticles
StoreExplorerAlg     INFO   | | +--> /Vertices [Address: CLID=0x62e Type=0x2]  LHCb::PackedVertices
StoreExplorerAlg     INFO   | | +--> /Relations [Address: CLID=0x618 Type=0x2]  LHCb::PackedRelations
StoreExplorerAlg     INFO     +--> /pRec [Address: CLID=0x1 Type=0x2]  DataObject
StoreExplorerAlg     INFO       +--> /Vertex [Address: CLID=0x1 Type=0x2]  DataObject
StoreExplorerAlg     INFO         +--> /Primary [Address: CLID=0x611 Type=0x2]  LHCb::PackedRecVertices
DumpTracks           INFO There are 65 tracks in /Event/Rec/Track/Best
DumpTracks          DEBUG *** Track ***
 key        : 0
 type       : Long
 history    : Unknown
 fitstatus  : Fitted
 # ids      : 48
 chi2PerDoF : 0.648528
 nDoF       : 42
 GhostProb  : 0.0169503
 Likelihood : -4.00692
 extraInfo : [ NCandCommonHits=1  FitVeloChi2=8.84095  FitVeloNDoF=19  FitTChi2=13.8626  FitTNDoF=14  FitMatchChi2=3.88297  NUTOutliers=0.9 ]
 p  : 43461.5
 pt : 2203.57
 3 states at z = -70.9949 109.406 9450  :-
 *** State ***
 z        : -70.9949
 location : ClosestToBeam
 p               : 43461.5
 pt              : 2203.57
 (x,y,tx,ty,q/p) : 0.5002, 0.3194, -0.0284768, 0.042028, -2.30089e-05
 covariance      : [   0.00022801 1.18804e-05-9.62056e-07-2.06091e-08 4.06914e-11
   1.18804e-05  0.00019881-2.44558e-08-8.90778e-07  3.6859e-12
  -9.62056e-07-2.44558e-08 4.76238e-09 5.66061e-11-1.26948e-13
  -2.06091e-08-8.90778e-07 5.66061e-11 4.59548e-09-7.65725e-15
   4.06914e-11  3.6859e-12-1.26948e-13-7.65725e-15 9.37391e-15 ]
 *** State ***
 z        : 109.406
 location : FirstMeasurement
 p               : 43459.7
 pt              : 2203.26
 (x,y,tx,ty,q/p) : -4.6363, 7.9013, -0.0284677, 0.0420279, -2.30098e-05
 covariance      : [    3.249e-05 5.60183e-06-1.64807e-07-9.87212e-09 1.73102e-11
   5.60183e-06   2.401e-05-1.38098e-08-1.28244e-07 2.29298e-12
  -1.64807e-07-1.38098e-08 2.84196e-09 5.88892e-11-1.30583e-13
  -9.87212e-09-1.28244e-07 5.88892e-11 2.67289e-09-7.67511e-15
   1.73102e-11 2.29298e-12-1.30583e-13-7.67511e-15 9.37379e-15 ]
 *** State ***
 z        : 9450
 location : BegRich2
 p               : 43412.2
 pt              : 1822.7
 (x,y,tx,ty,q/p) : -149.005, 400.163, 0.00048586, 0.0420201, -2.3035e-05
 covariance      : [   0.00881721  -0.0160115 8.17189e-06-2.43874e-06-1.90431e-09
    -0.0160115    0.437715-1.05005e-05 7.12822e-05  2.6775e-09
   8.17189e-06-1.05005e-05  1.4501e-08-1.66151e-09-1.15034e-12
  -2.43874e-06 7.12822e-05-1.66151e-09 3.13715e-08 4.75585e-13
  -1.90431e-09  2.6775e-09-1.15034e-12 4.75585e-13 9.37382e-15 ]
DumpTracks          DEBUG *** Track ***
 key        : 1
 type       : Long
 history    : Unknown
 fitstatus  : Fitted
 # ids      : 49
 chi2PerDoF : 1.42767
 nDoF       : 44
 GhostProb  : 0.0418214
 Likelihood : -27.52
 extraInfo : [ NCandCommonHits=1  FitVeloChi2=10.2001  FitVeloNDoF=15  FitTChi2=23.8737  FitTNDoF=20  FitMatchChi2=14.3417  NUTOutliers=0.9 ]
 p  : 11971.9
 pt : 443.597
 3 states at z = -83.6858 154.098 9450  :-
 *** State ***
 z        : -83.6858
 location : ClosestToBeam
 p               : 11971.9
 pt              : 443.597
 (x,y,tx,ty,q/p) : 0.3925, 0.4292, 0.0265012, -0.025933, 8.35291e-05
 covariance      : [   0.00350464 4.46605e-05-1.80034e-05-1.69819e-07-2.30631e-11
   4.46605e-05  0.00378225-1.57043e-07-1.89184e-05-5.49064e-12
  -1.80034e-05-1.57043e-07 9.85709e-08  5.9374e-10 1.07023e-13
  -1.69819e-07-1.89184e-05  5.9374e-10 1.01589e-07  2.3282e-14
  -2.30631e-11-5.49064e-12 1.07023e-13  2.3282e-14  5.9286e-14 ]
 *** State ***
 z        : 154.098
 location : FirstMeasurement
 p               : 11967.4
 pt              : 443.045
 (x,y,tx,ty,q/p) : 6.6892, -5.7372, 0.0264565, -0.0259322, 8.35601e-05
 covariance      : [    3.249e-05 3.77063e-06-4.17865e-07-1.56256e-08-1.29539e-12
   3.77063e-06   4.489e-05-2.46929e-09-6.12122e-07-5.43803e-14
  -4.17865e-07-2.46929e-09 1.86323e-08 6.49314e-10  7.5337e-14
  -1.56256e-08-6.12122e-07 6.49314e-10 2.16443e-08 2.26878e-14
  -1.29539e-12-5.43803e-14  7.5337e-14 2.26878e-14 5.92893e-14 ]
 *** State ***
 z        : 9450
 location : BegRich2
 p               : 11931.4
 pt              : 969.062
 (x,y,tx,ty,q/p) : -185.824, -234.117, -0.0777723, -0.0243288, 8.38126e-05
 covariance      : [   0.00906304 0.000408481 1.72455e-05  1.0146e-07-9.42673e-11
   0.000408481    0.379333-1.46073e-06 0.000172458 5.64876e-10
   1.72455e-05-1.46073e-06 7.60546e-08-4.51221e-10 1.30495e-12
    1.0146e-07 0.000172458-4.51221e-10 2.02788e-07 7.38307e-13
  -9.42673e-11 5.64876e-10 1.30495e-12 7.38307e-13 5.92885e-14 ]
DumpTracks          DEBUG *** Track ***
 key        : 2
 type       : Long
 history    : Unknown
 fitstatus  : Fitted
 # ids      : 46
 chi2PerDoF : 1.10302
 nDoF       : 40
 GhostProb  : 0.00581811
 Likelihood : -6.74646
 extraInfo : [ NCandCommonHits=1  FitVeloChi2=12.685  FitVeloNDoF=15  FitTChi2=18.6759  FitTNDoF=17  FitMatchChi2=10.5807  NUTOutliers=0.947368 ]
 p  : 8884.49
 pt : 322.663
 3 states at z = -59.7866 169.454 9450  :-
 *** State ***
 z        : -59.7866
 location : ClosestToBeam
 p               : 8884.49
 pt              : 322.663
 (x,y,tx,ty,q/p) : 0.0221, 0.0394, -0.0344667, 0.0115221, 0.000112556
 covariance      : [   0.00351649 0.000296247-1.52337e-05-1.05422e-06-1.88162e-11
   0.000296247  0.00369664-1.06101e-06-1.59502e-05-5.14458e-12
  -1.52337e-05-1.06101e-06 6.78394e-08 3.79898e-09 1.01929e-13
  -1.05422e-06-1.59502e-05 3.79898e-09  7.0756e-08 1.96941e-14
  -1.88162e-11-5.14458e-12 1.01929e-13 1.96941e-14 1.00683e-13 ]
 *** State ***
 z        : 169.454
 location : FirstMeasurement
 p               : 8883.28
 pt              : 323.132
 (x,y,tx,ty,q/p) : -7.8854, 2.6808, -0.0345274, 0.0115226, 0.000112571
 covariance      : [      4.9e-05 1.16136e-05-7.76912e-07-1.79729e-07-1.33268e-12
   1.16136e-05   5.476e-05-1.86805e-07-8.14912e-07-5.47878e-13
  -7.76912e-07-1.86805e-07 3.18123e-08 3.81347e-09 4.71619e-14
  -1.79729e-07-8.14912e-07 3.81347e-09 3.47673e-08 1.97215e-14
  -1.33268e-12-5.47878e-13 4.71619e-14 1.97215e-14 1.00682e-13 ]
 *** State ***
 z        : 9450
 location : BegRich2
 p               : 8847.9
 pt              : 1550.61
 (x,y,tx,ty,q/p) : -921.893, 110.925, -0.177643, 0.0113734, 0.000113021
 covariance      : [    0.0133403  0.00124795 2.63369e-05 5.05415e-07-9.41878e-10
    0.00124795     0.45603-9.98168e-07 0.000212626 2.97131e-09
   2.63369e-05-9.98168e-07 1.21913e-07-7.87448e-10  4.0771e-12
   5.05415e-07 0.000212626-7.87448e-10 2.54934e-07 6.40846e-14
  -9.41878e-10 2.97131e-09  4.0771e-12 6.40846e-14 1.00684e-13 ]
DumpTracks          DEBUG *** Track ***
 key        : 3
 type       : Long
 history    : Unknown
 fitstatus  : Fitted
 # ids      : 43
 chi2PerDoF : 1.34443
 nDoF       : 38
 GhostProb  : 0.011334
 Likelihood : -7.40989
 extraInfo : [ NCandCommonHits=1  FitVeloChi2=11.9822  FitVeloNDoF=13  FitTChi2=31.0275  FitTNDoF=16  FitMatchChi2=1.27305  NUTOutliers=0.904762 ]
 p  : 3028.35
 pt : 347.172
 3 states at z = -76.7099 34.4329 9450  :-
 *** State ***
 z        : -76.7099
 location : ClosestToBeam
 p               : 3028.35
 pt              : 347.172
 (x,y,tx,ty,q/p) : 0.7186, -0.0884, 0.0139514, 0.114555, 0.000330213
 covariance      : [   0.00770884-3.49116e-05-7.41684e-05 2.13026e-07-1.28529e-11
  -3.49116e-05  0.00649636 3.69676e-07-6.63255e-05 4.71958e-12
  -7.41684e-05 3.69676e-07 7.68094e-07-1.97805e-09 1.79615e-13
   2.13026e-07-6.63255e-05-1.97805e-09 7.16342e-07-4.95597e-14
  -1.28529e-11 4.71958e-12 1.79615e-13-4.95597e-14 7.71469e-13 ]
 *** State ***
 z        : 34.4329
 location : FirstMeasurement
 p               : 3026.6
 pt              : 346.948
 (x,y,tx,ty,q/p) : 2.2652, 12.6436, 0.013877, 0.114556, 0.000330404
 covariance      : [   0.00015625-5.48438e-06-3.32423e-06-1.03843e-07-7.31954e-13
  -5.48438e-06   4.225e-05 5.24606e-08-1.41572e-06 3.80616e-13
  -3.32423e-06 5.24606e-08  2.5026e-07-2.84848e-09 1.46467e-14
  -1.03843e-07-1.41572e-06-2.84848e-09 1.91844e-07-3.84715e-14
  -7.31954e-13 3.80616e-13 1.46467e-14-3.84715e-14 7.71491e-13 ]
 *** State ***
 z        : 9450
 location : BegRich2
 p               : 2989.7
 pt              : 1235.44
 (x,y,tx,ty,q/p) : -1738.65, 1067.44, -0.443074, 0.0980273, 0.000334482
 covariance      : [    0.0170564   0.0188226 6.48708e-05 7.72602e-06-1.18532e-10
     0.0188226     1.42659-3.47904e-05  0.00101625 -2.7905e-08
   6.48708e-05-3.47904e-05 5.72398e-07-4.96743e-08-1.55052e-12
   7.72602e-06  0.00101625-4.96743e-08 1.75936e-06-3.83287e-11
  -1.18532e-10 -2.7905e-08-1.55052e-12-3.83287e-11 7.71438e-13 ]
DumpTracks          DEBUG *** Track ***
 key        : 4
 type       : Long
 history    : Unknown
 fitstatus  : Fitted
 # ids      : 42
 chi2PerDoF : 0.616167
 nDoF       : 36
 GhostProb  : 0.00846039
 Likelihood : -2.97125
 extraInfo : [ NCandCommonHits=2  FitVeloChi2=3.68557  FitVeloNDoF=10  FitTChi2=11.2451  FitTNDoF=17  FitMatchChi2=5.95106  NUTOutliers=1 ]
 p  : 46650
 pt : 2730.62
 3 states at z = 59.0226 214.299 9450  :-
 *** State ***
 z        : 59.0226
 location : ClosestToBeam
 p               : 46650
 pt              : 2730.62
 (x,y,tx,ty,q/p) : 0.4438, -0.289, 0.0317384, 0.0493023, -2.14362e-05
 covariance      : [   0.00020164-9.20378e-06-1.16118e-06 1.11298e-08 4.52326e-11
  -9.20378e-06  0.00017689 1.46909e-08-1.11545e-06-4.39023e-12
  -1.16118e-06 1.46909e-08 8.86234e-09-2.99847e-11-1.99915e-13
   1.11298e-08-1.11545e-06-2.99847e-11 8.77594e-09 1.75231e-14
   4.52326e-11-4.39023e-12-1.99915e-13 1.75231e-14 6.81006e-15 ]
 *** State ***
 z        : 214.299
 location : FirstMeasurement
 p               : 46643.9
 pt              : 2730.5
 (x,y,tx,ty,q/p) : 5.3727, 7.3665, 0.0317477, 0.0493022, -2.1439e-05
 covariance      : [    3.721e-05-6.13144e-06-1.16253e-07 4.85217e-09 1.39775e-11
  -6.13144e-06   2.401e-05 8.36234e-09-8.60638e-08-1.64441e-12
  -1.16253e-07 8.36234e-09   2.116e-09 -4.0449e-11-2.02963e-13
   4.85217e-09-8.60638e-08 -4.0449e-11  2.0196e-09 1.76776e-14
   1.39775e-11-1.64441e-12-2.02963e-13 1.76776e-14 6.81005e-15 ]
 *** State ***
 z        : 9450
 location : BegRich2
 p               : 46614.7
 pt              : 3563.94
 (x,y,tx,ty,q/p) : 411.642, 462.514, 0.0587313, 0.0492991, -2.14525e-05
 covariance      : [   0.00408321 -0.00485866  2.9063e-06-6.41509e-07-2.23761e-09
   -0.00485866    0.355454-3.48319e-06  4.7218e-05 2.68798e-09
    2.9063e-06-3.48319e-06  4.8916e-09 -4.4947e-10-2.43026e-12
  -6.41509e-07  4.7218e-05 -4.4947e-10  1.0675e-08 3.65494e-13
  -2.23761e-09 2.68798e-09-2.43026e-12 3.65494e-13  6.8101e-15 ]
ApplicationMgr       INFO Application Manager Stopped successfully
TESFingerPrint    VERBOSE ==> TES DataObject statistics: {/Event: 5, /Event/Calo: 5, /Event/Calo/RawEvent: 5, /Event/DAQ: 5, /Event/Dimuon: 5, /Event/Dimuon/pPhys: 5, /Event/Dimuon/pPhys/Particles: 5, /Event/Dimuon/pPhys/RecVertices: 3, /Event/Dimuon/pPhys/Relations: 5, /Event/Dimuon/pPhys/Vertices: 5, /Event/Dimuon/pRec: 5, /Event/Dimuon/pRec/Vertex: 5, /Event/Dimuon/pRec/Vertex/Primary: 5, /Event/Muon: 5, /Event/Muon/RawEvent: 5, /Event/Other: 5, /Event/Other/RawEvent: 5, /Event/Rec: 5, /Event/Rec/Header: 5, /Event/Rec/Status: 5, /Event/Rec/Summary: 5, /Event/Rich: 5, /Event/Rich/RawEvent: 5, /Event/Strip: 5, /Event/Strip/pPhys: 5, /Event/Strip/pPhys/DecReports: 5, /Event/Trigger: 5, /Event/Trigger/RawEvent: 5, /Event/pRec: 5, /Event/pRec/Calo: 5, /Event/pRec/Calo/Electrons: 5, /Event/pRec/Calo/MergedPi0s: 5, /Event/pRec/Calo/Photons: 5, /Event/pRec/Calo/SplitPhotons: 5, /Event/pRec/Muon: 5, /Event/pRec/Muon/MuonPID: 5, /Event/pRec/ProtoP: 5, /Event/pRec/ProtoP/Charged: 5, /Event/pRec/ProtoP/Neutrals: 5, /Event/pRec/Rich: 5, /Event/pRec/Rich/PIDs: 5, /Event/pRec/Track: 5, /Event/pRec/Track/Best: 5, /Event/pRec/Track/Muon: 5, /Event/pRec/Vertex: 5, /Event/pRec/Vertex/Primary: 5, /Event/pRec/Vertex/V0: 5}
TESFingerPrint    VERBOSE ==> TES Container sizes: {}
InputCopyStream      INFO Events output: 5
FSRInputCopyStream   INFO Set up File Summary Record
FSRInputCopyStream   INFO Events output: 1
EventLoopMgr         INFO Histograms converted successfully according to request.
ToolSvc              INFO Removing all tools created by ToolSvc
ApplicationMgr       INFO Application Manager Finalized successfully
ApplicationMgr       INFO Application Manager Terminated successfully
DumpTracks           INFO Number of counters : 1
 |    Counter                                      |     #     |    sum     | mean/eff^* | rms/err^*  |     min     |     max     |
 | "#Tracks"                                       |         5 |       1233 |     246.60 |     111.33 |      65.000 |      364.00 |
PrintHeader          INFO Number of counters : 1
 |    Counter                                      |     #     |    sum     | mean/eff^* | rms/err^*  |     min     |     max     |
 | "EventCount"                                    |         5 |
UnpackTrack          INFO Number of counters : 1
 |    Counter                                      |     #     |    sum     | mean/eff^* | rms/err^*  |     min     |     max     |
 | "# Unpacked Tracks"                             |         5 |       1233 |     246.60 |
